[
  {
    "IsMy": true,
    "SecId": "SNGSP",
    "StockShortName": "Сургнфгз-п",
    "CurrentPrice": 41.65,
    "UserPrice": 31.893,
    "Count": 6400,
    "DivRegistryDate": "2023-07-20",
    "DivValue": 0.8,
    "CurrentAmount": 266560,
    "UserAmount": 204115.2,
    "CurrentAmountCommission": 799.6800000000001,
    "CurrentAmountPure": 265760.32,
    "SaleProfit": 61645.119999999995,
    "SaleProfitPer": 0.23126170468187274,
    "IsProfit": true,
    "DivValuePer": 0.019207683073229294,
    "DivAmount": 5120,
    "DivAmountTax": 665.6,
    "DivAmountPure": 4454.4
  },
  {
    "IsMy": true,
    "SecId": "TRNFP",
    "StockShortName": "Транснф ап",
    "CurrentPrice": 137750,
    "UserPrice": 135000,
    "Count": 2,
    "DivRegistryDate": "2023-07-20",
    "DivValue": 16665.2,
    "CurrentAmount": 275500,
    "UserAmount": 270000,
    "CurrentAmountCommission": 826.5,
    "CurrentAmountPure": 274673.5,
    "SaleProfit": 4673.5,
    "SaleProfitPer": 0.016963702359346643,
    "IsProfit": true,
    "DivValuePer": 0.12098148820326679,
    "DivAmount": 33330.4,
    "DivAmountTax": 4332.952,
    "DivAmountPure": 28997.448
  },
  {
    "IsMy": true,
    "SecId": "SNGS",
    "StockShortName": "Сургнфгз",
    "CurrentPrice": 28.125,
    "UserPrice": 27.1,
    "Count": 2000,
    "DivRegistryDate": "2023-07-20",
    "DivValue": 0.8,
    "CurrentAmount": 56250,
    "UserAmount": 54200,
    "CurrentAmountCommission": 168.75,
    "CurrentAmountPure": 56081.25,
    "SaleProfit": 1881.25,
    "SaleProfitPer": 0.03344444444444444,
    "IsProfit": true,
    "DivValuePer": 0.028444444444444446,
    "DivAmount": 1600,
    "DivAmountTax": 208,
    "DivAmountPure": 1392
  },
  {
    "IsMy": true,
    "SecId": "AGRO",
    "StockShortName": "AGRO-гдр",
    "CurrentPrice": 987.8,
    "UserPrice": 844,
    "Count": 15,
    "CurrentAmount": 14817,
    "UserAmount": 12660,
    "CurrentAmountCommission": 44.451,
    "CurrentAmountPure": 14772.549,
    "SaleProfit": 2112.549000000001,
    "SaleProfitPer": 0.1425760275359385,
    "IsProfit": true
  },
  {
    "IsMy": true,
    "SecId": "FIVE",
    "StockShortName": "FIVE-гдр",
    "CurrentPrice": 1528,
    "UserPrice": 1599,
    "Count": 15,
    "CurrentAmount": 22920,
    "UserAmount": 23985,
    "CurrentAmountCommission": 68.76,
    "CurrentAmountPure": 22851.24,
    "SaleProfit": -1133.7599999999984,
    "SaleProfitPer": -0.04946596858638736,
    "IsProfit": false
  },
  {
    "IsMy": true,
    "SecId": "SIBN",
    "StockShortName": "Газпрнефть",
    "CurrentPrice": 518.3,
    "UserPrice": 454.55,
    "Count": 15,
    "CurrentAmount": 7774.499999999999,
    "UserAmount": 6818.25,
    "CurrentAmountCommission": 23.3235,
    "CurrentAmountPure": 7751.176499999999,
    "SaleProfit": 932.9264999999987,
    "SaleProfitPer": 0.11999826355392613,
    "IsProfit": true
  },
  {
    "IsMy": true,
    "SecId": "GAZP",
    "StockShortName": "ГАЗПРОМ ао",
    "CurrentPrice": 166.34,
    "UserPrice": 188.11,
    "Count": 1660,
    "CurrentAmount": 276124.4,
    "UserAmount": 312262.60000000003,
    "CurrentAmountCommission": 828.3732000000001,
    "CurrentAmountPure": 275296.02680000005,
    "SaleProfit": -36966.573199999984,
    "SaleProfitPer": -0.1338765179752314,
    "IsProfit": false
  },
  {
    "IsMy": true,
    "SecId": "MTSS",
    "StockShortName": "МТС-ао",
    "CurrentPrice": 296.55,
    "UserPrice": 290.55,
    "Count": 480,
    "CurrentAmount": 142344,
    "UserAmount": 139464,
    "CurrentAmountCommission": 427.032,
    "CurrentAmountPure": 141916.968,
    "SaleProfit": 2452.9679999999935,
    "SaleProfitPer": 0.017232675771370717,
    "IsProfit": true
  },
  {
    "IsMy": true,
    "SecId": "ABRD",
    "StockShortName": "АбрауДюрсо",
    "CurrentPrice": 335.8,
    "UserPrice": 311.7,
    "Count": 450,
    "CurrentAmount": 151110,
    "UserAmount": 140265,
    "CurrentAmountCommission": 453.33,
    "CurrentAmountPure": 150656.67,
    "SaleProfit": 10391.670000000013,
    "SaleProfitPer": 0.06876891006551528,
    "IsProfit": true
  },
  {
    "IsMy": true,
    "SecId": "NKHP",
    "StockShortName": "НКХП ао",
    "CurrentPrice": 673.5,
    "UserPrice": 701.45,
    "Count": 135,
    "CurrentAmount": 90922.5,
    "UserAmount": 94695.75,
    "CurrentAmountCommission": 272.7675,
    "CurrentAmountPure": 90649.7325,
    "SaleProfit": -4046.0175000000017,
    "SaleProfitPer": -0.04449962880475132,
    "IsProfit": false
  },
  {
    "IsMy": true,
    "SecId": "ALRS",
    "StockShortName": "АЛРОСА ао",
    "CurrentPrice": 72.18,
    "UserPrice": 65,
    "Count": 1500,
    "CurrentAmount": 108270.00000000001,
    "UserAmount": 97500,
    "CurrentAmountCommission": 324.81000000000006,
    "CurrentAmountPure": 107945.19000000002,
    "SaleProfit": 10445.190000000017,
    "SaleProfitPer": 0.09647353837628166,
    "IsProfit": true
  },
  {
    "IsMy": false,
    "SecId": "AFKS",
    "StockShortName": "Система ао",
    "CurrentPrice": 17.328,
    "UserPrice": 0,
    "Count": 0,
    "DivRegistryDate": "2023-07-19",
    "DivValue": 0.41,
    "CurrentAmount": 0,
    "UserAmount": 0,
    "CurrentAmountCommission": 0,
    "CurrentAmountPure": 0,
    "SaleProfit": 0,
    "SaleProfitPer": null,
    "IsProfit": true,
    "DivValuePer": 0.02366112650046168,
    "DivAmount": 0,
    "DivAmountTax": 0,
    "DivAmountPure": 0
  },
  {
    "IsMy": false,
    "SecId": "HYDR",
    "StockShortName": "РусГидро",
    "CurrentPrice": 0.841,
    "UserPrice": 0,
    "Count": 0,
    "DivRegistryDate": "2023-07-11",
    "DivValue": 0.050254795,
    "CurrentAmount": 0,
    "UserAmount": 0,
    "CurrentAmountCommission": 0,
    "CurrentAmountPure": 0,
    "SaleProfit": 0,
    "SaleProfitPer": null,
    "IsProfit": true,
    "DivValuePer": 0.059755998810939355,
    "DivAmount": 0,
    "DivAmountTax": 0,
    "DivAmountPure": 0
  },
  {
    "IsMy": false,
    "SecId": "PHOR",
    "StockShortName": "ФосАгро ао",
    "CurrentPrice": 7391,
    "UserPrice": 0,
    "Count": 0,
    "DivRegistryDate": "2023-07-11",
    "DivValue": 216,
    "CurrentAmount": 0,
    "UserAmount": 0,
    "CurrentAmountCommission": 0,
    "CurrentAmountPure": 0,
    "SaleProfit": 0,
    "SaleProfitPer": null,
    "IsProfit": true,
    "DivValuePer": 0.029224732783114597,
    "DivAmount": 0,
    "DivAmountTax": 0,
    "DivAmountPure": 0
  },
  {
    "IsMy": false,
    "SecId": "ROSN",
    "StockShortName": "Роснефть",
    "CurrentPrice": 482.4,
    "UserPrice": 0,
    "Count": 0,
    "DivRegistryDate": "2023-07-11",
    "DivValue": 17.97,
    "CurrentAmount": 0,
    "UserAmount": 0,
    "CurrentAmountCommission": 0,
    "CurrentAmountPure": 0,
    "SaleProfit": 0,
    "SaleProfitPer": null,
    "IsProfit": true,
    "DivValuePer": 0.037251243781094526,
    "DivAmount": 0,
    "DivAmountTax": 0,
    "DivAmountPure": 0
  },
  {
    "IsMy": false,
    "SecId": "TATN",
    "StockShortName": "Татнфт 3ао",
    "CurrentPrice": 501,
    "UserPrice": 0,
    "Count": 0,
    "DivRegistryDate": "2023-07-11",
    "DivValue": 27.71,
    "CurrentAmount": 0,
    "UserAmount": 0,
    "CurrentAmountCommission": 0,
    "CurrentAmountPure": 0,
    "SaleProfit": 0,
    "SaleProfitPer": null,
    "IsProfit": true,
    "DivValuePer": 0.05530938123752495,
    "DivAmount": 0,
    "DivAmountTax": 0,
    "DivAmountPure": 0
  },
  {
    "IsMy": false,
    "SecId": "TATN",
    "StockShortName": "Татнфт 3ао",
    "CurrentPrice": 501,
    "UserPrice": 0,
    "Count": 0,
    "DivRegistryDate": "2023-07-11",
    "DivValue": 27.71,
    "CurrentAmount": 0,
    "UserAmount": 0,
    "CurrentAmountCommission": 0,
    "CurrentAmountPure": 0,
    "SaleProfit": 0,
    "SaleProfitPer": null,
    "IsProfit": true,
    "DivValuePer": 0.05530938123752495,
    "DivAmount": 0,
    "DivAmountTax": 0,
    "DivAmountPure": 0
  },
  {
    "IsMy": false,
    "SecId": "TATNP",
    "StockShortName": "Татнфт 3ап",
    "CurrentPrice": 493.9,
    "UserPrice": 0,
    "Count": 0,
    "DivRegistryDate": "2023-07-11",
    "DivValue": 27.71,
    "CurrentAmount": 0,
    "UserAmount": 0,
    "CurrentAmountCommission": 0,
    "CurrentAmountPure": 0,
    "SaleProfit": 0,
    "SaleProfitPer": null,
    "IsProfit": true,
    "DivValuePer": 0.05610447458999798,
    "DivAmount": 0,
    "DivAmountTax": 0,
    "DivAmountPure": 0
  },
  {
    "IsMy": false,
    "SecId": "TATNP",
    "StockShortName": "Татнфт 3ап",
    "CurrentPrice": 493.9,
    "UserPrice": 0,
    "Count": 0,
    "DivRegistryDate": "2023-07-11",
    "DivValue": 27.71,
    "CurrentAmount": 0,
    "UserAmount": 0,
    "CurrentAmountCommission": 0,
    "CurrentAmountPure": 0,
    "SaleProfit": 0,
    "SaleProfitPer": null,
    "IsProfit": true,
    "DivValuePer": 0.05610447458999798,
    "DivAmount": 0,
    "DivAmountTax": 0,
    "DivAmountPure": 0
  },
  {
    "IsMy": false,
    "SecId": "ACKO",
    "StockShortName": "АСКО ао",
    "CurrentPrice": null,
    "UserPrice": 0,
    "Count": 0,
    "CurrentAmount": 0,
    "UserAmount": 0,
    "CurrentAmountCommission": 0,
    "CurrentAmountPure": 0,
    "SaleProfit": 0,
    "SaleProfitPer": null,
    "IsProfit": true
  },
  {
    "IsMy": false,
    "SecId": "AKRN",
    "StockShortName": "Акрон",
    "CurrentPrice": 19016,
    "UserPrice": 0,
    "Count": 0,
    "CurrentAmount": 0,
    "UserAmount": 0,
    "CurrentAmountCommission": 0,
    "CurrentAmountPure": 0,
    "SaleProfit": 0,
    "SaleProfitPer": null,
    "IsProfit": true
  },
  {
    "IsMy": false,
    "SecId": "AMEZ",
    "StockShortName": "АшинскийМЗ",
    "CurrentPrice": 67.66,
    "UserPrice": 0,
    "Count": 0,
    "CurrentAmount": 0,
    "UserAmount": 0,
    "CurrentAmountCommission": 0,
    "CurrentAmountPure": 0,
    "SaleProfit": 0,
    "SaleProfitPer": null,
    "IsProfit": true
  },
  {
    "IsMy": false,
    "SecId": "APTK",
    "StockShortName": "Аптеки36и6",
    "CurrentPrice": 13.356,
    "UserPrice": 0,
    "Count": 0,
    "CurrentAmount": 0,
    "UserAmount": 0,
    "CurrentAmountCommission": 0,
    "CurrentAmountPure": 0,
    "SaleProfit": 0,
    "SaleProfitPer": null,
    "IsProfit": true
  },
  {
    "IsMy": false,
    "SecId": "AQUA",
    "StockShortName": "ИНАРКТИКА",
    "CurrentPrice": 621,
    "UserPrice": 0,
    "Count": 0,
    "CurrentAmount": 0,
    "UserAmount": 0,
    "CurrentAmountCommission": 0,
    "CurrentAmountPure": 0,
    "SaleProfit": 0,
    "SaleProfitPer": null,
    "IsProfit": true
  },
  {
    "IsMy": false,
    "SecId": "ARSA",
    "StockShortName": "Арсагера",
    "CurrentPrice": 7.82,
    "UserPrice": 0,
    "Count": 0,
    "CurrentAmount": 0,
    "UserAmount": 0,
    "CurrentAmountCommission": 0,
    "CurrentAmountPure": 0,
    "SaleProfit": 0,
    "SaleProfitPer": null,
    "IsProfit": true
  },
  {
    "IsMy": false,
    "SecId": "AFLT",
    "StockShortName": "Аэрофлот",
    "CurrentPrice": 41.43,
    "UserPrice": 0,
    "Count": 0,
    "CurrentAmount": 0,
    "UserAmount": 0,
    "CurrentAmountCommission": 0,
    "CurrentAmountPure": 0,
    "SaleProfit": 0,
    "SaleProfitPer": null,
    "IsProfit": true
  },
  {
    "IsMy": false,
    "SecId": "AVAN",
    "StockShortName": "Авангрд-ао",
    "CurrentPrice": 1170,
    "UserPrice": 0,
    "Count": 0,
    "CurrentAmount": 0,
    "UserAmount": 0,
    "CurrentAmountCommission": 0,
    "CurrentAmountPure": 0,
    "SaleProfit": 0,
    "SaleProfitPer": null,
    "IsProfit": true
  },
  {
    "IsMy": false,
    "SecId": "BANEP",
    "StockShortName": "Башнефт ап",
    "CurrentPrice": 1366,
    "UserPrice": 0,
    "Count": 0,
    "CurrentAmount": 0,
    "UserAmount": 0,
    "CurrentAmountCommission": 0,
    "CurrentAmountPure": 0,
    "SaleProfit": 0,
    "SaleProfitPer": null,
    "IsProfit": true
  },
  {
    "IsMy": false,
    "SecId": "BELU",
    "StockShortName": "Белуга ао",
    "CurrentPrice": 4230,
    "UserPrice": 0,
    "Count": 0,
    "CurrentAmount": 0,
    "UserAmount": 0,
    "CurrentAmountCommission": 0,
    "CurrentAmountPure": 0,
    "SaleProfit": 0,
    "SaleProfitPer": null,
    "IsProfit": true
  },
  {
    "IsMy": false,
    "SecId": "BISVP",
    "StockShortName": "БашИнСв ап",
    "CurrentPrice": 11.02,
    "UserPrice": 0,
    "Count": 0,
    "CurrentAmount": 0,
    "UserAmount": 0,
    "CurrentAmountCommission": 0,
    "CurrentAmountPure": 0,
    "SaleProfit": 0,
    "SaleProfitPer": null,
    "IsProfit": true
  },
  {
    "IsMy": false,
    "SecId": "BLNG",
    "StockShortName": "Белон ао",
    "CurrentPrice": 24.205,
    "UserPrice": 0,
    "Count": 0,
    "CurrentAmount": 0,
    "UserAmount": 0,
    "CurrentAmountCommission": 0,
    "CurrentAmountPure": 0,
    "SaleProfit": 0,
    "SaleProfitPer": null,
    "IsProfit": true
  },
  {
    "IsMy": false,
    "SecId": "BRZL",
    "StockShortName": "БурЗолото",
    "CurrentPrice": 1196,
    "UserPrice": 0,
    "Count": 0,
    "CurrentAmount": 0,
    "UserAmount": 0,
    "CurrentAmountCommission": 0,
    "CurrentAmountPure": 0,
    "SaleProfit": 0,
    "SaleProfitPer": null,
    "IsProfit": true
  },
  {
    "IsMy": false,
    "SecId": "BSPB",
    "StockShortName": "БСП ао",
    "CurrentPrice": 163.69,
    "UserPrice": 0,
    "Count": 0,
    "CurrentAmount": 0,
    "UserAmount": 0,
    "CurrentAmountCommission": 0,
    "CurrentAmountPure": 0,
    "SaleProfit": 0,
    "SaleProfitPer": null,
    "IsProfit": true
  },
  {
    "IsMy": false,
    "SecId": "BSPBP",
    "StockShortName": "БСП ап",
    "CurrentPrice": 64.35,
    "UserPrice": 0,
    "Count": 0,
    "CurrentAmount": 0,
    "UserAmount": 0,
    "CurrentAmountCommission": 0,
    "CurrentAmountPure": 0,
    "SaleProfit": 0,
    "SaleProfitPer": null,
    "IsProfit": true
  },
  {
    "IsMy": false,
    "SecId": "CARM",
    "StockShortName": "СТГ",
    "CurrentPrice": 2.805,
    "UserPrice": 0,
    "Count": 0,
    "CurrentAmount": 0,
    "UserAmount": 0,
    "CurrentAmountCommission": 0,
    "CurrentAmountPure": 0,
    "SaleProfit": 0,
    "SaleProfitPer": null,
    "IsProfit": true
  },
  {
    "IsMy": false,
    "SecId": "ASSB",
    "StockShortName": "АстрЭнСб",
    "CurrentPrice": 1.314,
    "UserPrice": 0,
    "Count": 0,
    "CurrentAmount": 0,
    "UserAmount": 0,
    "CurrentAmountCommission": 0,
    "CurrentAmountPure": 0,
    "SaleProfit": 0,
    "SaleProfitPer": null,
    "IsProfit": true
  },
  {
    "IsMy": false,
    "SecId": "CHGZ",
    "StockShortName": "РН-ЗапСиб",
    "CurrentPrice": 49.4,
    "UserPrice": 0,
    "Count": 0,
    "CurrentAmount": 0,
    "UserAmount": 0,
    "CurrentAmountCommission": 0,
    "CurrentAmountPure": 0,
    "SaleProfit": 0,
    "SaleProfitPer": null,
    "IsProfit": true
  },
  {
    "IsMy": false,
    "SecId": "CHKZ",
    "StockShortName": "ЧКПЗ ао",
    "CurrentPrice": 12800,
    "UserPrice": 0,
    "Count": 0,
    "CurrentAmount": 0,
    "UserAmount": 0,
    "CurrentAmountCommission": 0,
    "CurrentAmountPure": 0,
    "SaleProfit": 0,
    "SaleProfitPer": null,
    "IsProfit": true
  },
  {
    "IsMy": false,
    "SecId": "CHMF",
    "StockShortName": "СевСт-ао",
    "CurrentPrice": 1199.4,
    "UserPrice": 0,
    "Count": 0,
    "CurrentAmount": 0,
    "UserAmount": 0,
    "CurrentAmountCommission": 0,
    "CurrentAmountPure": 0,
    "SaleProfit": 0,
    "SaleProfitPer": null,
    "IsProfit": true
  },
  {
    "IsMy": false,
    "SecId": "BANE",
    "StockShortName": "Башнефт ао",
    "CurrentPrice": 1841,
    "UserPrice": 0,
    "Count": 0,
    "CurrentAmount": 0,
    "UserAmount": 0,
    "CurrentAmountCommission": 0,
    "CurrentAmountPure": 0,
    "SaleProfit": 0,
    "SaleProfitPer": null,
    "IsProfit": true
  },
  {
    "IsMy": false,
    "SecId": "CIAN",
    "StockShortName": "CIAN-адр",
    "CurrentPrice": 673,
    "UserPrice": 0,
    "Count": 0,
    "CurrentAmount": 0,
    "UserAmount": 0,
    "CurrentAmountCommission": 0,
    "CurrentAmountPure": 0,
    "SaleProfit": 0,
    "SaleProfitPer": null,
    "IsProfit": true
  },
  {
    "IsMy": false,
    "SecId": "CNTL",
    "StockShortName": "Телеграф",
    "CurrentPrice": 15.18,
    "UserPrice": 0,
    "Count": 0,
    "CurrentAmount": 0,
    "UserAmount": 0,
    "CurrentAmountCommission": 0,
    "CurrentAmountPure": 0,
    "SaleProfit": 0,
    "SaleProfitPer": null,
    "IsProfit": true
  },
  {
    "IsMy": false,
    "SecId": "CNTLP",
    "StockShortName": "Телеграф-п",
    "CurrentPrice": 12.2,
    "UserPrice": 0,
    "Count": 0,
    "CurrentAmount": 0,
    "UserAmount": 0,
    "CurrentAmountCommission": 0,
    "CurrentAmountPure": 0,
    "SaleProfit": 0,
    "SaleProfitPer": null,
    "IsProfit": true
  },
  {
    "IsMy": false,
    "SecId": "DIOD",
    "StockShortName": "ЗаводДИОД",
    "CurrentPrice": 11.76,
    "UserPrice": 0,
    "Count": 0,
    "CurrentAmount": 0,
    "UserAmount": 0,
    "CurrentAmountCommission": 0,
    "CurrentAmountPure": 0,
    "SaleProfit": 0,
    "SaleProfitPer": null,
    "IsProfit": true
  },
  {
    "IsMy": false,
    "SecId": "DSKY",
    "StockShortName": "ДетскийМир",
    "CurrentPrice": 71.38,
    "UserPrice": 0,
    "Count": 0,
    "CurrentAmount": 0,
    "UserAmount": 0,
    "CurrentAmountCommission": 0,
    "CurrentAmountPure": 0,
    "SaleProfit": 0,
    "SaleProfitPer": null,
    "IsProfit": true
  },
  {
    "IsMy": false,
    "SecId": "DVEC",
    "StockShortName": "ДЭК ао",
    "CurrentPrice": 1.604,
    "UserPrice": 0,
    "Count": 0,
    "CurrentAmount": 0,
    "UserAmount": 0,
    "CurrentAmountCommission": 0,
    "CurrentAmountPure": 0,
    "SaleProfit": 0,
    "SaleProfitPer": null,
    "IsProfit": true
  },
  {
    "IsMy": false,
    "SecId": "DZRD",
    "StockShortName": "ДонскЗР",
    "CurrentPrice": 3930,
    "UserPrice": 0,
    "Count": 0,
    "CurrentAmount": 0,
    "UserAmount": 0,
    "CurrentAmountCommission": 0,
    "CurrentAmountPure": 0,
    "SaleProfit": 0,
    "SaleProfitPer": null,
    "IsProfit": true
  },
  {
    "IsMy": false,
    "SecId": "DZRDP",
    "StockShortName": "ДонскЗР п",
    "CurrentPrice": 3180,
    "UserPrice": 0,
    "Count": 0,
    "CurrentAmount": 0,
    "UserAmount": 0,
    "CurrentAmountCommission": 0,
    "CurrentAmountPure": 0,
    "SaleProfit": 0,
    "SaleProfitPer": null,
    "IsProfit": true
  },
  {
    "IsMy": false,
    "SecId": "EELT",
    "StockShortName": "ЕвроЭлтех",
    "CurrentPrice": 12.18,
    "UserPrice": 0,
    "Count": 0,
    "CurrentAmount": 0,
    "UserAmount": 0,
    "CurrentAmountCommission": 0,
    "CurrentAmountPure": 0,
    "SaleProfit": 0,
    "SaleProfitPer": null,
    "IsProfit": true
  },
  {
    "IsMy": false,
    "SecId": "ELFV",
    "StockShortName": "ЭЛ5Энер ао",
    "CurrentPrice": 0.574,
    "UserPrice": 0,
    "Count": 0,
    "CurrentAmount": 0,
    "UserAmount": 0,
    "CurrentAmountCommission": 0,
    "CurrentAmountPure": 0,
    "SaleProfit": 0,
    "SaleProfitPer": null,
    "IsProfit": true
  },
  {
    "IsMy": false,
    "SecId": "CBOM",
    "StockShortName": "МКБ ао",
    "CurrentPrice": 6.821,
    "UserPrice": 0,
    "Count": 0,
    "CurrentAmount": 0,
    "UserAmount": 0,
    "CurrentAmountCommission": 0,
    "CurrentAmountPure": 0,
    "SaleProfit": 0,
    "SaleProfitPer": null,
    "IsProfit": true
  },
  {
    "IsMy": false,
    "SecId": "ENPG",
    "StockShortName": "ЭН+ГРУП ао",
    "CurrentPrice": 483.2,
    "UserPrice": 0,
    "Count": 0,
    "CurrentAmount": 0,
    "UserAmount": 0,
    "CurrentAmountCommission": 0,
    "CurrentAmountPure": 0,
    "SaleProfit": 0,
    "SaleProfitPer": null,
    "IsProfit": true
  },
  {
    "IsMy": false,
    "SecId": "ETLN",
    "StockShortName": "ETLN-гдр",
    "CurrentPrice": 89.88,
    "UserPrice": 0,
    "Count": 0,
    "CurrentAmount": 0,
    "UserAmount": 0,
    "CurrentAmountCommission": 0,
    "CurrentAmountPure": 0,
    "SaleProfit": 0,
    "SaleProfitPer": null,
    "IsProfit": true
  },
  {
    "IsMy": false,
    "SecId": "FEES",
    "StockShortName": "Россети",
    "CurrentPrice": 0.1001,
    "UserPrice": 0,
    "Count": 0,
    "CurrentAmount": 0,
    "UserAmount": 0,
    "CurrentAmountCommission": 0,
    "CurrentAmountPure": 0,
    "SaleProfit": 0,
    "SaleProfitPer": null,
    "IsProfit": true
  },
  {
    "IsMy": false,
    "SecId": "FESH",
    "StockShortName": "ДВМП ао",
    "CurrentPrice": 65.62,
    "UserPrice": 0,
    "Count": 0,
    "CurrentAmount": 0,
    "UserAmount": 0,
    "CurrentAmountCommission": 0,
    "CurrentAmountPure": 0,
    "SaleProfit": 0,
    "SaleProfitPer": null,
    "IsProfit": true
  },
  {
    "IsMy": false,
    "SecId": "CHMK",
    "StockShortName": "ЧМК ао",
    "CurrentPrice": 6380,
    "UserPrice": 0,
    "Count": 0,
    "CurrentAmount": 0,
    "UserAmount": 0,
    "CurrentAmountCommission": 0,
    "CurrentAmountPure": 0,
    "SaleProfit": 0,
    "SaleProfitPer": null,
    "IsProfit": true
  },
  {
    "IsMy": false,
    "SecId": "FLOT",
    "StockShortName": "Совкомфлот",
    "CurrentPrice": 87.72,
    "UserPrice": 0,
    "Count": 0,
    "CurrentAmount": 0,
    "UserAmount": 0,
    "CurrentAmountCommission": 0,
    "CurrentAmountPure": 0,
    "SaleProfit": 0,
    "SaleProfitPer": null,
    "IsProfit": true
  },
  {
    "IsMy": false,
    "SecId": "GAZA",
    "StockShortName": "ГАЗ ао",
    "CurrentPrice": 879,
    "UserPrice": 0,
    "Count": 0,
    "CurrentAmount": 0,
    "UserAmount": 0,
    "CurrentAmountCommission": 0,
    "CurrentAmountPure": 0,
    "SaleProfit": 0,
    "SaleProfitPer": null,
    "IsProfit": true
  },
  {
    "IsMy": false,
    "SecId": "GAZAP",
    "StockShortName": "ГАЗ ап",
    "CurrentPrice": 511.5,
    "UserPrice": 0,
    "Count": 0,
    "CurrentAmount": 0,
    "UserAmount": 0,
    "CurrentAmountCommission": 0,
    "CurrentAmountPure": 0,
    "SaleProfit": 0,
    "SaleProfitPer": null,
    "IsProfit": true
  },
  {
    "IsMy": false,
    "SecId": "GAZC",
    "StockShortName": "ГАЗКОН-ао",
    "CurrentPrice": null,
    "UserPrice": 0,
    "Count": 0,
    "CurrentAmount": 0,
    "UserAmount": 0,
    "CurrentAmountCommission": 0,
    "CurrentAmountPure": 0,
    "SaleProfit": 0,
    "SaleProfitPer": null,
    "IsProfit": true
  },
  {
    "IsMy": false,
    "SecId": "GAZS",
    "StockShortName": "ГАЗ-сервис",
    "CurrentPrice": null,
    "UserPrice": 0,
    "Count": 0,
    "CurrentAmount": 0,
    "UserAmount": 0,
    "CurrentAmountCommission": 0,
    "CurrentAmountPure": 0,
    "SaleProfit": 0,
    "SaleProfitPer": null,
    "IsProfit": true
  },
  {
    "IsMy": false,
    "SecId": "GAZT",
    "StockShortName": "ГАЗ-Тек ао",
    "CurrentPrice": null,
    "UserPrice": 0,
    "Count": 0,
    "CurrentAmount": 0,
    "UserAmount": 0,
    "CurrentAmountCommission": 0,
    "CurrentAmountPure": 0,
    "SaleProfit": 0,
    "SaleProfitPer": null,
    "IsProfit": true
  },
  {
    "IsMy": false,
    "SecId": "GCHE",
    "StockShortName": "ЧеркизГ-ао",
    "CurrentPrice": 3128,
    "UserPrice": 0,
    "Count": 0,
    "CurrentAmount": 0,
    "UserAmount": 0,
    "CurrentAmountCommission": 0,
    "CurrentAmountPure": 0,
    "SaleProfit": 0,
    "SaleProfitPer": null,
    "IsProfit": true
  },
  {
    "IsMy": false,
    "SecId": "GECO",
    "StockShortName": "iГЕНЕТИКО",
    "CurrentPrice": 32.092,
    "UserPrice": 0,
    "Count": 0,
    "CurrentAmount": 0,
    "UserAmount": 0,
    "CurrentAmountCommission": 0,
    "CurrentAmountPure": 0,
    "SaleProfit": 0,
    "SaleProfitPer": null,
    "IsProfit": true
  },
  {
    "IsMy": false,
    "SecId": "GEMA",
    "StockShortName": "iММЦБ ао",
    "CurrentPrice": 956,
    "UserPrice": 0,
    "Count": 0,
    "CurrentAmount": 0,
    "UserAmount": 0,
    "CurrentAmountCommission": 0,
    "CurrentAmountPure": 0,
    "SaleProfit": 0,
    "SaleProfitPer": null,
    "IsProfit": true
  },
  {
    "IsMy": false,
    "SecId": "GEMC",
    "StockShortName": "GEMC-гдр",
    "CurrentPrice": 623.1,
    "UserPrice": 0,
    "Count": 0,
    "CurrentAmount": 0,
    "UserAmount": 0,
    "CurrentAmountCommission": 0,
    "CurrentAmountPure": 0,
    "SaleProfit": 0,
    "SaleProfitPer": null,
    "IsProfit": true
  },
  {
    "IsMy": false,
    "SecId": "GLTR",
    "StockShortName": "GLTR-гдр",
    "CurrentPrice": 518.85,
    "UserPrice": 0,
    "Count": 0,
    "CurrentAmount": 0,
    "UserAmount": 0,
    "CurrentAmountCommission": 0,
    "CurrentAmountPure": 0,
    "SaleProfit": 0,
    "SaleProfitPer": null,
    "IsProfit": true
  },
  {
    "IsMy": false,
    "SecId": "ELTZ",
    "StockShortName": "Электрцинк",
    "CurrentPrice": 660,
    "UserPrice": 0,
    "Count": 0,
    "CurrentAmount": 0,
    "UserAmount": 0,
    "CurrentAmountCommission": 0,
    "CurrentAmountPure": 0,
    "SaleProfit": 0,
    "SaleProfitPer": null,
    "IsProfit": true
  },
  {
    "IsMy": false,
    "SecId": "GTRK",
    "StockShortName": "ГТМ ао",
    "CurrentPrice": 80.15,
    "UserPrice": 0,
    "Count": 0,
    "CurrentAmount": 0,
    "UserAmount": 0,
    "CurrentAmountCommission": 0,
    "CurrentAmountPure": 0,
    "SaleProfit": 0,
    "SaleProfitPer": null,
    "IsProfit": true
  },
  {
    "IsMy": false,
    "SecId": "HHRU",
    "StockShortName": "iHHRU-адр",
    "CurrentPrice": 2174,
    "UserPrice": 0,
    "Count": 0,
    "CurrentAmount": 0,
    "UserAmount": 0,
    "CurrentAmountCommission": 0,
    "CurrentAmountPure": 0,
    "SaleProfit": 0,
    "SaleProfitPer": null,
    "IsProfit": true
  },
  {
    "IsMy": false,
    "SecId": "HIMCP",
    "StockShortName": "Химпром ап",
    "CurrentPrice": 25.36,
    "UserPrice": 0,
    "Count": 0,
    "CurrentAmount": 0,
    "UserAmount": 0,
    "CurrentAmountCommission": 0,
    "CurrentAmountPure": 0,
    "SaleProfit": 0,
    "SaleProfitPer": null,
    "IsProfit": true
  },
  {
    "IsMy": false,
    "SecId": "HMSG",
    "StockShortName": "HMSG-гдр",
    "CurrentPrice": 172.5,
    "UserPrice": 0,
    "Count": 0,
    "CurrentAmount": 0,
    "UserAmount": 0,
    "CurrentAmountCommission": 0,
    "CurrentAmountPure": 0,
    "SaleProfit": 0,
    "SaleProfitPer": null,
    "IsProfit": true
  },
  {
    "IsMy": false,
    "SecId": "IGST",
    "StockShortName": "Ижсталь2ао",
    "CurrentPrice": 5030,
    "UserPrice": 0,
    "Count": 0,
    "CurrentAmount": 0,
    "UserAmount": 0,
    "CurrentAmountCommission": 0,
    "CurrentAmountPure": 0,
    "SaleProfit": 0,
    "SaleProfitPer": null,
    "IsProfit": true
  },
  {
    "IsMy": false,
    "SecId": "IGSTP",
    "StockShortName": "Ижсталь ап",
    "CurrentPrice": 4120,
    "UserPrice": 0,
    "Count": 0,
    "CurrentAmount": 0,
    "UserAmount": 0,
    "CurrentAmountCommission": 0,
    "CurrentAmountPure": 0,
    "SaleProfit": 0,
    "SaleProfitPer": null,
    "IsProfit": true
  },
  {
    "IsMy": false,
    "SecId": "FIXP",
    "StockShortName": "FIXP-гдр",
    "CurrentPrice": 371.7,
    "UserPrice": 0,
    "Count": 0,
    "CurrentAmount": 0,
    "UserAmount": 0,
    "CurrentAmountCommission": 0,
    "CurrentAmountPure": 0,
    "SaleProfit": 0,
    "SaleProfitPer": null,
    "IsProfit": true
  },
  {
    "IsMy": false,
    "SecId": "IRAO",
    "StockShortName": "ИнтерРАОао",
    "CurrentPrice": 3.9705,
    "UserPrice": 0,
    "Count": 0,
    "CurrentAmount": 0,
    "UserAmount": 0,
    "CurrentAmountCommission": 0,
    "CurrentAmountPure": 0,
    "SaleProfit": 0,
    "SaleProfitPer": null,
    "IsProfit": true
  },
  {
    "IsMy": false,
    "SecId": "IRKT",
    "StockShortName": "ИРКУТ-3",
    "CurrentPrice": 60.5,
    "UserPrice": 0,
    "Count": 0,
    "CurrentAmount": 0,
    "UserAmount": 0,
    "CurrentAmountCommission": 0,
    "CurrentAmountPure": 0,
    "SaleProfit": 0,
    "SaleProfitPer": null,
    "IsProfit": true
  },
  {
    "IsMy": false,
    "SecId": "ISKJ",
    "StockShortName": "iИСКЧ ао",
    "CurrentPrice": 103.2,
    "UserPrice": 0,
    "Count": 0,
    "CurrentAmount": 0,
    "UserAmount": 0,
    "CurrentAmountCommission": 0,
    "CurrentAmountPure": 0,
    "SaleProfit": 0,
    "SaleProfitPer": null,
    "IsProfit": true
  },
  {
    "IsMy": false,
    "SecId": "JNOS",
    "StockShortName": "Славн-ЯНОС",
    "CurrentPrice": 29.75,
    "UserPrice": 0,
    "Count": 0,
    "CurrentAmount": 0,
    "UserAmount": 0,
    "CurrentAmountCommission": 0,
    "CurrentAmountPure": 0,
    "SaleProfit": 0,
    "SaleProfitPer": null,
    "IsProfit": true
  },
  {
    "IsMy": false,
    "SecId": "JNOSP",
    "StockShortName": "Слав-ЯНОСп",
    "CurrentPrice": 17.64,
    "UserPrice": 0,
    "Count": 0,
    "CurrentAmount": 0,
    "UserAmount": 0,
    "CurrentAmountCommission": 0,
    "CurrentAmountPure": 0,
    "SaleProfit": 0,
    "SaleProfitPer": null,
    "IsProfit": true
  },
  {
    "IsMy": false,
    "SecId": "KAZT",
    "StockShortName": "Куйбазот",
    "CurrentPrice": 635,
    "UserPrice": 0,
    "Count": 0,
    "CurrentAmount": 0,
    "UserAmount": 0,
    "CurrentAmountCommission": 0,
    "CurrentAmountPure": 0,
    "SaleProfit": 0,
    "SaleProfitPer": null,
    "IsProfit": true
  },
  {
    "IsMy": false,
    "SecId": "KAZTP",
    "StockShortName": "Куйбазот-п",
    "CurrentPrice": 641.6,
    "UserPrice": 0,
    "Count": 0,
    "CurrentAmount": 0,
    "UserAmount": 0,
    "CurrentAmountCommission": 0,
    "CurrentAmountPure": 0,
    "SaleProfit": 0,
    "SaleProfitPer": null,
    "IsProfit": true
  },
  {
    "IsMy": false,
    "SecId": "KBSB",
    "StockShortName": "ТНСэКубань",
    "CurrentPrice": 337.5,
    "UserPrice": 0,
    "Count": 0,
    "CurrentAmount": 0,
    "UserAmount": 0,
    "CurrentAmountCommission": 0,
    "CurrentAmountPure": 0,
    "SaleProfit": 0,
    "SaleProfitPer": null,
    "IsProfit": true
  },
  {
    "IsMy": false,
    "SecId": "KCHE",
    "StockShortName": "КамчатЭ ао",
    "CurrentPrice": 0.282,
    "UserPrice": 0,
    "Count": 0,
    "CurrentAmount": 0,
    "UserAmount": 0,
    "CurrentAmountCommission": 0,
    "CurrentAmountPure": 0,
    "SaleProfit": 0,
    "SaleProfitPer": null,
    "IsProfit": true
  },
  {
    "IsMy": false,
    "SecId": "KCHEP",
    "StockShortName": "КамчатЭ ап",
    "CurrentPrice": 0.707,
    "UserPrice": 0,
    "Count": 0,
    "CurrentAmount": 0,
    "UserAmount": 0,
    "CurrentAmountCommission": 0,
    "CurrentAmountPure": 0,
    "SaleProfit": 0,
    "SaleProfitPer": null,
    "IsProfit": true
  },
  {
    "IsMy": false,
    "SecId": "KGKC",
    "StockShortName": "КурганГКао",
    "CurrentPrice": 51.6,
    "UserPrice": 0,
    "Count": 0,
    "CurrentAmount": 0,
    "UserAmount": 0,
    "CurrentAmountCommission": 0,
    "CurrentAmountPure": 0,
    "SaleProfit": 0,
    "SaleProfitPer": null,
    "IsProfit": true
  },
  {
    "IsMy": false,
    "SecId": "KGKCP",
    "StockShortName": "КурганГКап",
    "CurrentPrice": 59.6,
    "UserPrice": 0,
    "Count": 0,
    "CurrentAmount": 0,
    "UserAmount": 0,
    "CurrentAmountCommission": 0,
    "CurrentAmountPure": 0,
    "SaleProfit": 0,
    "SaleProfitPer": null,
    "IsProfit": true
  },
  {
    "IsMy": false,
    "SecId": "KLSB",
    "StockShortName": "КалужскСК",
    "CurrentPrice": 20.94,
    "UserPrice": 0,
    "Count": 0,
    "CurrentAmount": 0,
    "UserAmount": 0,
    "CurrentAmountCommission": 0,
    "CurrentAmountPure": 0,
    "SaleProfit": 0,
    "SaleProfitPer": null,
    "IsProfit": true
  },
  {
    "IsMy": false,
    "SecId": "KMAZ",
    "StockShortName": "КАМАЗ",
    "CurrentPrice": 205,
    "UserPrice": 0,
    "Count": 0,
    "CurrentAmount": 0,
    "UserAmount": 0,
    "CurrentAmountCommission": 0,
    "CurrentAmountPure": 0,
    "SaleProfit": 0,
    "SaleProfitPer": null,
    "IsProfit": true
  },
  {
    "IsMy": false,
    "SecId": "GMKN",
    "StockShortName": "ГМКНорНик",
    "CurrentPrice": 15080,
    "UserPrice": 0,
    "Count": 0,
    "CurrentAmount": 0,
    "UserAmount": 0,
    "CurrentAmountCommission": 0,
    "CurrentAmountPure": 0,
    "SaleProfit": 0,
    "SaleProfitPer": null,
    "IsProfit": true
  },
  {
    "IsMy": false,
    "SecId": "KMTZ",
    "StockShortName": "КосогМЗ ао",
    "CurrentPrice": 270,
    "UserPrice": 0,
    "Count": 0,
    "CurrentAmount": 0,
    "UserAmount": 0,
    "CurrentAmountCommission": 0,
    "CurrentAmountPure": 0,
    "SaleProfit": 0,
    "SaleProfitPer": null,
    "IsProfit": true
  },
  {
    "IsMy": false,
    "SecId": "KOGK",
    "StockShortName": "КоршГОК ао",
    "CurrentPrice": 47800,
    "UserPrice": 0,
    "Count": 0,
    "CurrentAmount": 0,
    "UserAmount": 0,
    "CurrentAmountCommission": 0,
    "CurrentAmountPure": 0,
    "SaleProfit": 0,
    "SaleProfitPer": null,
    "IsProfit": true
  },
  {
    "IsMy": false,
    "SecId": "KRKN",
    "StockShortName": "СаратНПЗ",
    "CurrentPrice": 11550,
    "UserPrice": 0,
    "Count": 0,
    "CurrentAmount": 0,
    "UserAmount": 0,
    "CurrentAmountCommission": 0,
    "CurrentAmountPure": 0,
    "SaleProfit": 0,
    "SaleProfitPer": null,
    "IsProfit": true
  },
  {
    "IsMy": false,
    "SecId": "KRKNP",
    "StockShortName": "СаратНПЗ-п",
    "CurrentPrice": 13100,
    "UserPrice": 0,
    "Count": 0,
    "CurrentAmount": 0,
    "UserAmount": 0,
    "CurrentAmountCommission": 0,
    "CurrentAmountPure": 0,
    "SaleProfit": 0,
    "SaleProfitPer": null,
    "IsProfit": true
  },
  {
    "IsMy": false,
    "SecId": "KRKOP",
    "StockShortName": "ТКЗКК ап",
    "CurrentPrice": 16.65,
    "UserPrice": 0,
    "Count": 0,
    "CurrentAmount": 0,
    "UserAmount": 0,
    "CurrentAmountCommission": 0,
    "CurrentAmountPure": 0,
    "SaleProfit": 0,
    "SaleProfitPer": null,
    "IsProfit": true
  },
  {
    "IsMy": false,
    "SecId": "KROT",
    "StockShortName": "КрасОкт-ао",
    "CurrentPrice": 1827,
    "UserPrice": 0,
    "Count": 0,
    "CurrentAmount": 0,
    "UserAmount": 0,
    "CurrentAmountCommission": 0,
    "CurrentAmountPure": 0,
    "SaleProfit": 0,
    "SaleProfitPer": null,
    "IsProfit": true
  },
  {
    "IsMy": false,
    "SecId": "KROTP",
    "StockShortName": "КрасОкт-1п",
    "CurrentPrice": 697,
    "UserPrice": 0,
    "Count": 0,
    "CurrentAmount": 0,
    "UserAmount": 0,
    "CurrentAmountCommission": 0,
    "CurrentAmountPure": 0,
    "SaleProfit": 0,
    "SaleProfitPer": null,
    "IsProfit": true
  },
  {
    "IsMy": false,
    "SecId": "KRSB",
    "StockShortName": "Красэсб ао",
    "CurrentPrice": 14.64,
    "UserPrice": 0,
    "Count": 0,
    "CurrentAmount": 0,
    "UserAmount": 0,
    "CurrentAmountCommission": 0,
    "CurrentAmountPure": 0,
    "SaleProfit": 0,
    "SaleProfitPer": null,
    "IsProfit": true
  },
  {
    "IsMy": false,
    "SecId": "KRSBP",
    "StockShortName": "Красэсб ап",
    "CurrentPrice": 14.76,
    "UserPrice": 0,
    "Count": 0,
    "CurrentAmount": 0,
    "UserAmount": 0,
    "CurrentAmountCommission": 0,
    "CurrentAmountPure": 0,
    "SaleProfit": 0,
    "SaleProfitPer": null,
    "IsProfit": true
  },
  {
    "IsMy": false,
    "SecId": "INGR",
    "StockShortName": "ИНГРАД ао",
    "CurrentPrice": 1738,
    "UserPrice": 0,
    "Count": 0,
    "CurrentAmount": 0,
    "UserAmount": 0,
    "CurrentAmountCommission": 0,
    "CurrentAmountPure": 0,
    "SaleProfit": 0,
    "SaleProfitPer": null,
    "IsProfit": true
  },
  {
    "IsMy": false,
    "SecId": "KTSBP",
    "StockShortName": "КСБ ап",
    "CurrentPrice": 0.9975,
    "UserPrice": 0,
    "Count": 0,
    "CurrentAmount": 0,
    "UserAmount": 0,
    "CurrentAmountCommission": 0,
    "CurrentAmountPure": 0,
    "SaleProfit": 0,
    "SaleProfitPer": null,
    "IsProfit": true
  },
  {
    "IsMy": false,
    "SecId": "KUBE",
    "StockShortName": "РСетКубань",
    "CurrentPrice": 214.3,
    "UserPrice": 0,
    "Count": 0,
    "CurrentAmount": 0,
    "UserAmount": 0,
    "CurrentAmountCommission": 0,
    "CurrentAmountPure": 0,
    "SaleProfit": 0,
    "SaleProfitPer": null,
    "IsProfit": true
  },
  {
    "IsMy": false,
    "SecId": "KUZB",
    "StockShortName": "КузнецкийБ",
    "CurrentPrice": 0.054,
    "UserPrice": 0,
    "Count": 0,
    "CurrentAmount": 0,
    "UserAmount": 0,
    "CurrentAmountCommission": 0,
    "CurrentAmountPure": 0,
    "SaleProfit": 0,
    "SaleProfitPer": null,
    "IsProfit": true
  },
  {
    "IsMy": false,
    "SecId": "KZOS",
    "StockShortName": "ОргСинт ао",
    "CurrentPrice": 115.1,
    "UserPrice": 0,
    "Count": 0,
    "CurrentAmount": 0,
    "UserAmount": 0,
    "CurrentAmountCommission": 0,
    "CurrentAmountPure": 0,
    "SaleProfit": 0,
    "SaleProfitPer": null,
    "IsProfit": true
  },
  {
    "IsMy": false,
    "SecId": "KZOSP",
    "StockShortName": "ОргСинт ап",
    "CurrentPrice": 29.08,
    "UserPrice": 0,
    "Count": 0,
    "CurrentAmount": 0,
    "UserAmount": 0,
    "CurrentAmountCommission": 0,
    "CurrentAmountPure": 0,
    "SaleProfit": 0,
    "SaleProfitPer": null,
    "IsProfit": true
  },
  {
    "IsMy": false,
    "SecId": "LENT",
    "StockShortName": "Лента ао",
    "CurrentPrice": 743.5,
    "UserPrice": 0,
    "Count": 0,
    "CurrentAmount": 0,
    "UserAmount": 0,
    "CurrentAmountCommission": 0,
    "CurrentAmountPure": 0,
    "SaleProfit": 0,
    "SaleProfitPer": null,
    "IsProfit": true
  },
  {
    "IsMy": false,
    "SecId": "LIFE",
    "StockShortName": "iФармсинтз",
    "CurrentPrice": 7.52,
    "UserPrice": 0,
    "Count": 0,
    "CurrentAmount": 0,
    "UserAmount": 0,
    "CurrentAmountCommission": 0,
    "CurrentAmountPure": 0,
    "SaleProfit": 0,
    "SaleProfitPer": null,
    "IsProfit": true
  },
  {
    "IsMy": false,
    "SecId": "LKOH",
    "StockShortName": "ЛУКОЙЛ",
    "CurrentPrice": 5439.5,
    "UserPrice": 0,
    "Count": 0,
    "CurrentAmount": 0,
    "UserAmount": 0,
    "CurrentAmountCommission": 0,
    "CurrentAmountPure": 0,
    "SaleProfit": 0,
    "SaleProfitPer": null,
    "IsProfit": true
  },
  {
    "IsMy": false,
    "SecId": "LNZL",
    "StockShortName": "Лензолото",
    "CurrentPrice": 15020,
    "UserPrice": 0,
    "Count": 0,
    "CurrentAmount": 0,
    "UserAmount": 0,
    "CurrentAmountCommission": 0,
    "CurrentAmountPure": 0,
    "SaleProfit": 0,
    "SaleProfitPer": null,
    "IsProfit": true
  },
  {
    "IsMy": false,
    "SecId": "LNZLP",
    "StockShortName": "Лензол. ап",
    "CurrentPrice": 3125,
    "UserPrice": 0,
    "Count": 0,
    "CurrentAmount": 0,
    "UserAmount": 0,
    "CurrentAmountCommission": 0,
    "CurrentAmountPure": 0,
    "SaleProfit": 0,
    "SaleProfitPer": null,
    "IsProfit": true
  },
  {
    "IsMy": false,
    "SecId": "LPSB",
    "StockShortName": "ЛЭСК ао",
    "CurrentPrice": 21.4,
    "UserPrice": 0,
    "Count": 0,
    "CurrentAmount": 0,
    "UserAmount": 0,
    "CurrentAmountCommission": 0,
    "CurrentAmountPure": 0,
    "SaleProfit": 0,
    "SaleProfitPer": null,
    "IsProfit": true
  },
  {
    "IsMy": false,
    "SecId": "LSNG",
    "StockShortName": "РСетиЛЭ",
    "CurrentPrice": 15.67,
    "UserPrice": 0,
    "Count": 0,
    "CurrentAmount": 0,
    "UserAmount": 0,
    "CurrentAmountCommission": 0,
    "CurrentAmountPure": 0,
    "SaleProfit": 0,
    "SaleProfitPer": null,
    "IsProfit": true
  },
  {
    "IsMy": false,
    "SecId": "LSNGP",
    "StockShortName": "РСетиЛЭ-п",
    "CurrentPrice": 199.95,
    "UserPrice": 0,
    "Count": 0,
    "CurrentAmount": 0,
    "UserAmount": 0,
    "CurrentAmountCommission": 0,
    "CurrentAmountPure": 0,
    "SaleProfit": 0,
    "SaleProfitPer": null,
    "IsProfit": true
  },
  {
    "IsMy": false,
    "SecId": "LSRG",
    "StockShortName": "ЛСР ао",
    "CurrentPrice": 710.6,
    "UserPrice": 0,
    "Count": 0,
    "CurrentAmount": 0,
    "UserAmount": 0,
    "CurrentAmountCommission": 0,
    "CurrentAmountPure": 0,
    "SaleProfit": 0,
    "SaleProfitPer": null,
    "IsProfit": true
  },
  {
    "IsMy": false,
    "SecId": "LVHK",
    "StockShortName": "Левенгук",
    "CurrentPrice": 22.61,
    "UserPrice": 0,
    "Count": 0,
    "CurrentAmount": 0,
    "UserAmount": 0,
    "CurrentAmountCommission": 0,
    "CurrentAmountPure": 0,
    "SaleProfit": 0,
    "SaleProfitPer": null,
    "IsProfit": true
  },
  {
    "IsMy": false,
    "SecId": "MAGE",
    "StockShortName": "МагадЭн ао",
    "CurrentPrice": 5.65,
    "UserPrice": 0,
    "Count": 0,
    "CurrentAmount": 0,
    "UserAmount": 0,
    "CurrentAmountCommission": 0,
    "CurrentAmountPure": 0,
    "SaleProfit": 0,
    "SaleProfitPer": null,
    "IsProfit": true
  },
  {
    "IsMy": false,
    "SecId": "MAGEP",
    "StockShortName": "МагадЭн ап",
    "CurrentPrice": 4.45,
    "UserPrice": 0,
    "Count": 0,
    "CurrentAmount": 0,
    "UserAmount": 0,
    "CurrentAmountCommission": 0,
    "CurrentAmountPure": 0,
    "SaleProfit": 0,
    "SaleProfitPer": null,
    "IsProfit": true
  },
  {
    "IsMy": false,
    "SecId": "KMEZ",
    "StockShortName": "КМЗ",
    "CurrentPrice": 1506,
    "UserPrice": 0,
    "Count": 0,
    "CurrentAmount": 0,
    "UserAmount": 0,
    "CurrentAmountCommission": 0,
    "CurrentAmountPure": 0,
    "SaleProfit": 0,
    "SaleProfitPer": null,
    "IsProfit": true
  },
  {
    "IsMy": false,
    "SecId": "MDMG",
    "StockShortName": "MDMG-гдр",
    "CurrentPrice": 640.2,
    "UserPrice": 0,
    "Count": 0,
    "CurrentAmount": 0,
    "UserAmount": 0,
    "CurrentAmountCommission": 0,
    "CurrentAmountPure": 0,
    "SaleProfit": 0,
    "SaleProfitPer": null,
    "IsProfit": true
  },
  {
    "IsMy": false,
    "SecId": "MFGS",
    "StockShortName": "Мегион-ао",
    "CurrentPrice": 418.5,
    "UserPrice": 0,
    "Count": 0,
    "CurrentAmount": 0,
    "UserAmount": 0,
    "CurrentAmountCommission": 0,
    "CurrentAmountPure": 0,
    "SaleProfit": 0,
    "SaleProfitPer": null,
    "IsProfit": true
  },
  {
    "IsMy": false,
    "SecId": "MFGSP",
    "StockShortName": "Мегион-ап",
    "CurrentPrice": 277,
    "UserPrice": 0,
    "Count": 0,
    "CurrentAmount": 0,
    "UserAmount": 0,
    "CurrentAmountCommission": 0,
    "CurrentAmountPure": 0,
    "SaleProfit": 0,
    "SaleProfitPer": null,
    "IsProfit": true
  },
  {
    "IsMy": false,
    "SecId": "MGNT",
    "StockShortName": "Магнит ао",
    "CurrentPrice": 5325,
    "UserPrice": 0,
    "Count": 0,
    "CurrentAmount": 0,
    "UserAmount": 0,
    "CurrentAmountCommission": 0,
    "CurrentAmountPure": 0,
    "SaleProfit": 0,
    "SaleProfitPer": null,
    "IsProfit": true
  },
  {
    "IsMy": false,
    "SecId": "MGNZ",
    "StockShortName": "СМЗ-ао",
    "CurrentPrice": null,
    "UserPrice": 0,
    "Count": 0,
    "CurrentAmount": 0,
    "UserAmount": 0,
    "CurrentAmountCommission": 0,
    "CurrentAmountPure": 0,
    "SaleProfit": 0,
    "SaleProfitPer": null,
    "IsProfit": true
  },
  {
    "IsMy": false,
    "SecId": "MGTS",
    "StockShortName": "МГТС-5ао",
    "CurrentPrice": 1735,
    "UserPrice": 0,
    "Count": 0,
    "CurrentAmount": 0,
    "UserAmount": 0,
    "CurrentAmountCommission": 0,
    "CurrentAmountPure": 0,
    "SaleProfit": 0,
    "SaleProfitPer": null,
    "IsProfit": true
  },
  {
    "IsMy": false,
    "SecId": "MGTSP",
    "StockShortName": "МГТС-4ап",
    "CurrentPrice": 1168,
    "UserPrice": 0,
    "Count": 0,
    "CurrentAmount": 0,
    "UserAmount": 0,
    "CurrentAmountCommission": 0,
    "CurrentAmountPure": 0,
    "SaleProfit": 0,
    "SaleProfitPer": null,
    "IsProfit": true
  },
  {
    "IsMy": false,
    "SecId": "MISB",
    "StockShortName": "ТНСэнМарЭл",
    "CurrentPrice": 38.8,
    "UserPrice": 0,
    "Count": 0,
    "CurrentAmount": 0,
    "UserAmount": 0,
    "CurrentAmountCommission": 0,
    "CurrentAmountPure": 0,
    "SaleProfit": 0,
    "SaleProfitPer": null,
    "IsProfit": true
  },
  {
    "IsMy": false,
    "SecId": "MISBP",
    "StockShortName": "ТНСэМаЭл-п",
    "CurrentPrice": 45.9,
    "UserPrice": 0,
    "Count": 0,
    "CurrentAmount": 0,
    "UserAmount": 0,
    "CurrentAmountCommission": 0,
    "CurrentAmountPure": 0,
    "SaleProfit": 0,
    "SaleProfitPer": null,
    "IsProfit": true
  },
  {
    "IsMy": false,
    "SecId": "KTSB",
    "StockShortName": "КСБ ао",
    "CurrentPrice": 2.348,
    "UserPrice": 0,
    "Count": 0,
    "CurrentAmount": 0,
    "UserAmount": 0,
    "CurrentAmountCommission": 0,
    "CurrentAmountPure": 0,
    "SaleProfit": 0,
    "SaleProfitPer": null,
    "IsProfit": true
  },
  {
    "IsMy": false,
    "SecId": "MRKC",
    "StockShortName": "РоссЦентр",
    "CurrentPrice": 0.428,
    "UserPrice": 0,
    "Count": 0,
    "CurrentAmount": 0,
    "UserAmount": 0,
    "CurrentAmountCommission": 0,
    "CurrentAmountPure": 0,
    "SaleProfit": 0,
    "SaleProfitPer": null,
    "IsProfit": true
  },
  {
    "IsMy": false,
    "SecId": "MRKK",
    "StockShortName": "Россети СК",
    "CurrentPrice": 17.86,
    "UserPrice": 0,
    "Count": 0,
    "CurrentAmount": 0,
    "UserAmount": 0,
    "CurrentAmountCommission": 0,
    "CurrentAmountPure": 0,
    "SaleProfit": 0,
    "SaleProfitPer": null,
    "IsProfit": true
  },
  {
    "IsMy": false,
    "SecId": "MRKP",
    "StockShortName": "РСетиЦП ао",
    "CurrentPrice": 0.2814,
    "UserPrice": 0,
    "Count": 0,
    "CurrentAmount": 0,
    "UserAmount": 0,
    "CurrentAmountCommission": 0,
    "CurrentAmountPure": 0,
    "SaleProfit": 0,
    "SaleProfitPer": null,
    "IsProfit": true
  },
  {
    "IsMy": false,
    "SecId": "MRKS",
    "StockShortName": "РсетСиб ао",
    "CurrentPrice": 0.403,
    "UserPrice": 0,
    "Count": 0,
    "CurrentAmount": 0,
    "UserAmount": 0,
    "CurrentAmountCommission": 0,
    "CurrentAmountPure": 0,
    "SaleProfit": 0,
    "SaleProfitPer": null,
    "IsProfit": true
  },
  {
    "IsMy": false,
    "SecId": "MRKU",
    "StockShortName": "МРСК Ур",
    "CurrentPrice": 0.3074,
    "UserPrice": 0,
    "Count": 0,
    "CurrentAmount": 0,
    "UserAmount": 0,
    "CurrentAmountCommission": 0,
    "CurrentAmountPure": 0,
    "SaleProfit": 0,
    "SaleProfitPer": null,
    "IsProfit": true
  },
  {
    "IsMy": false,
    "SecId": "MRKV",
    "StockShortName": "РсетВол ао",
    "CurrentPrice": 0.04345,
    "UserPrice": 0,
    "Count": 0,
    "CurrentAmount": 0,
    "UserAmount": 0,
    "CurrentAmountCommission": 0,
    "CurrentAmountPure": 0,
    "SaleProfit": 0,
    "SaleProfitPer": null,
    "IsProfit": true
  },
  {
    "IsMy": false,
    "SecId": "MRKY",
    "StockShortName": "РоссЮг ао",
    "CurrentPrice": 0.05055,
    "UserPrice": 0,
    "Count": 0,
    "CurrentAmount": 0,
    "UserAmount": 0,
    "CurrentAmountCommission": 0,
    "CurrentAmountPure": 0,
    "SaleProfit": 0,
    "SaleProfitPer": null,
    "IsProfit": true
  },
  {
    "IsMy": false,
    "SecId": "MRKZ",
    "StockShortName": "РСетиСЗ ао",
    "CurrentPrice": 0.04105,
    "UserPrice": 0,
    "Count": 0,
    "CurrentAmount": 0,
    "UserAmount": 0,
    "CurrentAmountCommission": 0,
    "CurrentAmountPure": 0,
    "SaleProfit": 0,
    "SaleProfitPer": null,
    "IsProfit": true
  },
  {
    "IsMy": false,
    "SecId": "MRSB",
    "StockShortName": "МордЭнСб",
    "CurrentPrice": 0.56,
    "UserPrice": 0,
    "Count": 0,
    "CurrentAmount": 0,
    "UserAmount": 0,
    "CurrentAmountCommission": 0,
    "CurrentAmountPure": 0,
    "SaleProfit": 0,
    "SaleProfitPer": null,
    "IsProfit": true
  },
  {
    "IsMy": false,
    "SecId": "MSNG",
    "StockShortName": "+МосЭнерго",
    "CurrentPrice": 2.931,
    "UserPrice": 0,
    "Count": 0,
    "CurrentAmount": 0,
    "UserAmount": 0,
    "CurrentAmountCommission": 0,
    "CurrentAmountPure": 0,
    "SaleProfit": 0,
    "SaleProfitPer": null,
    "IsProfit": true
  },
  {
    "IsMy": false,
    "SecId": "MSRS",
    "StockShortName": "РСетиМР ао",
    "CurrentPrice": 1.218,
    "UserPrice": 0,
    "Count": 0,
    "CurrentAmount": 0,
    "UserAmount": 0,
    "CurrentAmountCommission": 0,
    "CurrentAmountPure": 0,
    "SaleProfit": 0,
    "SaleProfitPer": null,
    "IsProfit": true
  },
  {
    "IsMy": false,
    "SecId": "MSTT",
    "StockShortName": "Мостотрест",
    "CurrentPrice": 220.7,
    "UserPrice": 0,
    "Count": 0,
    "CurrentAmount": 0,
    "UserAmount": 0,
    "CurrentAmountCommission": 0,
    "CurrentAmountPure": 0,
    "SaleProfit": 0,
    "SaleProfitPer": null,
    "IsProfit": true
  },
  {
    "IsMy": false,
    "SecId": "MTLR",
    "StockShortName": "Мечел ао",
    "CurrentPrice": 185.29,
    "UserPrice": 0,
    "Count": 0,
    "CurrentAmount": 0,
    "UserAmount": 0,
    "CurrentAmountCommission": 0,
    "CurrentAmountPure": 0,
    "SaleProfit": 0,
    "SaleProfitPer": null,
    "IsProfit": true
  },
  {
    "IsMy": false,
    "SecId": "MTLRP",
    "StockShortName": "Мечел ап",
    "CurrentPrice": 199.4,
    "UserPrice": 0,
    "Count": 0,
    "CurrentAmount": 0,
    "UserAmount": 0,
    "CurrentAmountCommission": 0,
    "CurrentAmountPure": 0,
    "SaleProfit": 0,
    "SaleProfitPer": null,
    "IsProfit": true
  },
  {
    "IsMy": false,
    "SecId": "MVID",
    "StockShortName": "М.видео",
    "CurrentPrice": 191.2,
    "UserPrice": 0,
    "Count": 0,
    "CurrentAmount": 0,
    "UserAmount": 0,
    "CurrentAmountCommission": 0,
    "CurrentAmountPure": 0,
    "SaleProfit": 0,
    "SaleProfitPer": null,
    "IsProfit": true
  },
  {
    "IsMy": false,
    "SecId": "NAUK",
    "StockShortName": "iНПОНаука",
    "CurrentPrice": 349.6,
    "UserPrice": 0,
    "Count": 0,
    "CurrentAmount": 0,
    "UserAmount": 0,
    "CurrentAmountCommission": 0,
    "CurrentAmountPure": 0,
    "SaleProfit": 0,
    "SaleProfitPer": null,
    "IsProfit": true
  },
  {
    "IsMy": false,
    "SecId": "NFAZ",
    "StockShortName": "НЕФАЗ",
    "CurrentPrice": 362,
    "UserPrice": 0,
    "Count": 0,
    "CurrentAmount": 0,
    "UserAmount": 0,
    "CurrentAmountCommission": 0,
    "CurrentAmountPure": 0,
    "SaleProfit": 0,
    "SaleProfitPer": null,
    "IsProfit": true
  },
  {
    "IsMy": false,
    "SecId": "NKNC",
    "StockShortName": "НКНХ ао",
    "CurrentPrice": 121.9,
    "UserPrice": 0,
    "Count": 0,
    "CurrentAmount": 0,
    "UserAmount": 0,
    "CurrentAmountCommission": 0,
    "CurrentAmountPure": 0,
    "SaleProfit": 0,
    "SaleProfitPer": null,
    "IsProfit": true
  },
  {
    "IsMy": false,
    "SecId": "NKNCP",
    "StockShortName": "НКНХ ап",
    "CurrentPrice": 83.76,
    "UserPrice": 0,
    "Count": 0,
    "CurrentAmount": 0,
    "UserAmount": 0,
    "CurrentAmountCommission": 0,
    "CurrentAmountPure": 0,
    "SaleProfit": 0,
    "SaleProfitPer": null,
    "IsProfit": true
  },
  {
    "IsMy": false,
    "SecId": "MAGN",
    "StockShortName": "ММК",
    "CurrentPrice": 47.555,
    "UserPrice": 0,
    "Count": 0,
    "CurrentAmount": 0,
    "UserAmount": 0,
    "CurrentAmountCommission": 0,
    "CurrentAmountPure": 0,
    "SaleProfit": 0,
    "SaleProfitPer": null,
    "IsProfit": true
  },
  {
    "IsMy": false,
    "SecId": "NLMK",
    "StockShortName": "НЛМК ао",
    "CurrentPrice": 181.34,
    "UserPrice": 0,
    "Count": 0,
    "CurrentAmount": 0,
    "UserAmount": 0,
    "CurrentAmountCommission": 0,
    "CurrentAmountPure": 0,
    "SaleProfit": 0,
    "SaleProfitPer": null,
    "IsProfit": true
  },
  {
    "IsMy": false,
    "SecId": "NMTP",
    "StockShortName": "НМТП ао",
    "CurrentPrice": 9.15,
    "UserPrice": 0,
    "Count": 0,
    "CurrentAmount": 0,
    "UserAmount": 0,
    "CurrentAmountCommission": 0,
    "CurrentAmountPure": 0,
    "SaleProfit": 0,
    "SaleProfitPer": null,
    "IsProfit": true
  },
  {
    "IsMy": false,
    "SecId": "NNSB",
    "StockShortName": "ТНСэнНН ао",
    "CurrentPrice": 3130,
    "UserPrice": 0,
    "Count": 0,
    "CurrentAmount": 0,
    "UserAmount": 0,
    "CurrentAmountCommission": 0,
    "CurrentAmountPure": 0,
    "SaleProfit": 0,
    "SaleProfitPer": null,
    "IsProfit": true
  },
  {
    "IsMy": false,
    "SecId": "NNSBP",
    "StockShortName": "ТНСэнНН ап",
    "CurrentPrice": 1101,
    "UserPrice": 0,
    "Count": 0,
    "CurrentAmount": 0,
    "UserAmount": 0,
    "CurrentAmountCommission": 0,
    "CurrentAmountPure": 0,
    "SaleProfit": 0,
    "SaleProfitPer": null,
    "IsProfit": true
  },
  {
    "IsMy": false,
    "SecId": "NSVZ",
    "StockShortName": "iНаукаСвяз",
    "CurrentPrice": 261,
    "UserPrice": 0,
    "Count": 0,
    "CurrentAmount": 0,
    "UserAmount": 0,
    "CurrentAmountCommission": 0,
    "CurrentAmountPure": 0,
    "SaleProfit": 0,
    "SaleProfitPer": null,
    "IsProfit": true
  },
  {
    "IsMy": false,
    "SecId": "NVTK",
    "StockShortName": "Новатэк ао",
    "CurrentPrice": 1396.4,
    "UserPrice": 0,
    "Count": 0,
    "CurrentAmount": 0,
    "UserAmount": 0,
    "CurrentAmountCommission": 0,
    "CurrentAmountPure": 0,
    "SaleProfit": 0,
    "SaleProfitPer": null,
    "IsProfit": true
  },
  {
    "IsMy": false,
    "SecId": "OGKB",
    "StockShortName": "ОГК-2 ао",
    "CurrentPrice": 0.6688,
    "UserPrice": 0,
    "Count": 0,
    "CurrentAmount": 0,
    "UserAmount": 0,
    "CurrentAmountCommission": 0,
    "CurrentAmountPure": 0,
    "SaleProfit": 0,
    "SaleProfitPer": null,
    "IsProfit": true
  },
  {
    "IsMy": false,
    "SecId": "OKEY",
    "StockShortName": "OKEY-гдр",
    "CurrentPrice": 31.95,
    "UserPrice": 0,
    "Count": 0,
    "CurrentAmount": 0,
    "UserAmount": 0,
    "CurrentAmountCommission": 0,
    "CurrentAmountPure": 0,
    "SaleProfit": 0,
    "SaleProfitPer": null,
    "IsProfit": true
  },
  {
    "IsMy": false,
    "SecId": "OMZZP",
    "StockShortName": "ОМЗ-ап",
    "CurrentPrice": 10575,
    "UserPrice": 0,
    "Count": 0,
    "CurrentAmount": 0,
    "UserAmount": 0,
    "CurrentAmountCommission": 0,
    "CurrentAmountPure": 0,
    "SaleProfit": 0,
    "SaleProfitPer": null,
    "IsProfit": true
  },
  {
    "IsMy": false,
    "SecId": "MOEX",
    "StockShortName": "МосБиржа",
    "CurrentPrice": 122.74,
    "UserPrice": 0,
    "Count": 0,
    "CurrentAmount": 0,
    "UserAmount": 0,
    "CurrentAmountCommission": 0,
    "CurrentAmountPure": 0,
    "SaleProfit": 0,
    "SaleProfitPer": null,
    "IsProfit": true
  },
  {
    "IsMy": false,
    "SecId": "PAZA",
    "StockShortName": "ПавлАвт ао",
    "CurrentPrice": 10700,
    "UserPrice": 0,
    "Count": 0,
    "CurrentAmount": 0,
    "UserAmount": 0,
    "CurrentAmountCommission": 0,
    "CurrentAmountPure": 0,
    "SaleProfit": 0,
    "SaleProfitPer": null,
    "IsProfit": true
  },
  {
    "IsMy": false,
    "SecId": "PIKK",
    "StockShortName": "ПИК ао",
    "CurrentPrice": 760.4,
    "UserPrice": 0,
    "Count": 0,
    "CurrentAmount": 0,
    "UserAmount": 0,
    "CurrentAmountCommission": 0,
    "CurrentAmountPure": 0,
    "SaleProfit": 0,
    "SaleProfitPer": null,
    "IsProfit": true
  },
  {
    "IsMy": false,
    "SecId": "PLZL",
    "StockShortName": "Полюс",
    "CurrentPrice": 10712.5,
    "UserPrice": 0,
    "Count": 0,
    "CurrentAmount": 0,
    "UserAmount": 0,
    "CurrentAmountCommission": 0,
    "CurrentAmountPure": 0,
    "SaleProfit": 0,
    "SaleProfitPer": null,
    "IsProfit": true
  },
  {
    "IsMy": false,
    "SecId": "PMSB",
    "StockShortName": "ПермьЭнСб",
    "CurrentPrice": 157.8,
    "UserPrice": 0,
    "Count": 0,
    "CurrentAmount": 0,
    "UserAmount": 0,
    "CurrentAmountCommission": 0,
    "CurrentAmountPure": 0,
    "SaleProfit": 0,
    "SaleProfitPer": null,
    "IsProfit": true
  },
  {
    "IsMy": false,
    "SecId": "PMSBP",
    "StockShortName": "ПермьЭнС-п",
    "CurrentPrice": 172.2,
    "UserPrice": 0,
    "Count": 0,
    "CurrentAmount": 0,
    "UserAmount": 0,
    "CurrentAmountCommission": 0,
    "CurrentAmountPure": 0,
    "SaleProfit": 0,
    "SaleProfitPer": null,
    "IsProfit": true
  },
  {
    "IsMy": false,
    "SecId": "POLY",
    "StockShortName": "Polymetal",
    "CurrentPrice": 558.1,
    "UserPrice": 0,
    "Count": 0,
    "CurrentAmount": 0,
    "UserAmount": 0,
    "CurrentAmountCommission": 0,
    "CurrentAmountPure": 0,
    "SaleProfit": 0,
    "SaleProfitPer": null,
    "IsProfit": true
  },
  {
    "IsMy": false,
    "SecId": "POSI",
    "StockShortName": "iПозитив",
    "CurrentPrice": 1976,
    "UserPrice": 0,
    "Count": 0,
    "CurrentAmount": 0,
    "UserAmount": 0,
    "CurrentAmountCommission": 0,
    "CurrentAmountPure": 0,
    "SaleProfit": 0,
    "SaleProfitPer": null,
    "IsProfit": true
  },
  {
    "IsMy": false,
    "SecId": "PRMB",
    "StockShortName": "Приморье",
    "CurrentPrice": 36800,
    "UserPrice": 0,
    "Count": 0,
    "CurrentAmount": 0,
    "UserAmount": 0,
    "CurrentAmountCommission": 0,
    "CurrentAmountPure": 0,
    "SaleProfit": 0,
    "SaleProfitPer": null,
    "IsProfit": true
  },
  {
    "IsMy": false,
    "SecId": "QIWI",
    "StockShortName": "iQIWI",
    "CurrentPrice": 628.5,
    "UserPrice": 0,
    "Count": 0,
    "CurrentAmount": 0,
    "UserAmount": 0,
    "CurrentAmountCommission": 0,
    "CurrentAmountPure": 0,
    "SaleProfit": 0,
    "SaleProfitPer": null,
    "IsProfit": true
  },
  {
    "IsMy": false,
    "SecId": "RASP",
    "StockShortName": "Распадская",
    "CurrentPrice": 296.6,
    "UserPrice": 0,
    "Count": 0,
    "CurrentAmount": 0,
    "UserAmount": 0,
    "CurrentAmountCommission": 0,
    "CurrentAmountPure": 0,
    "SaleProfit": 0,
    "SaleProfitPer": null,
    "IsProfit": true
  },
  {
    "IsMy": false,
    "SecId": "RBCM",
    "StockShortName": "ГК РБК ао",
    "CurrentPrice": 4.216,
    "UserPrice": 0,
    "Count": 0,
    "CurrentAmount": 0,
    "UserAmount": 0,
    "CurrentAmountCommission": 0,
    "CurrentAmountPure": 0,
    "SaleProfit": 0,
    "SaleProfitPer": null,
    "IsProfit": true
  },
  {
    "IsMy": false,
    "SecId": "RDRB",
    "StockShortName": "РДБанк ао",
    "CurrentPrice": 226,
    "UserPrice": 0,
    "Count": 0,
    "CurrentAmount": 0,
    "UserAmount": 0,
    "CurrentAmountCommission": 0,
    "CurrentAmountPure": 0,
    "SaleProfit": 0,
    "SaleProfitPer": null,
    "IsProfit": true
  },
  {
    "IsMy": false,
    "SecId": "RENI",
    "StockShortName": "Ренессанс",
    "CurrentPrice": 84.5,
    "UserPrice": 0,
    "Count": 0,
    "CurrentAmount": 0,
    "UserAmount": 0,
    "CurrentAmountCommission": 0,
    "CurrentAmountPure": 0,
    "SaleProfit": 0,
    "SaleProfitPer": null,
    "IsProfit": true
  },
  {
    "IsMy": false,
    "SecId": "RGSS",
    "StockShortName": "РГС СК ао",
    "CurrentPrice": 0.2192,
    "UserPrice": 0,
    "Count": 0,
    "CurrentAmount": 0,
    "UserAmount": 0,
    "CurrentAmountCommission": 0,
    "CurrentAmountPure": 0,
    "SaleProfit": 0,
    "SaleProfitPer": null,
    "IsProfit": true
  },
  {
    "IsMy": false,
    "SecId": "RKKE",
    "StockShortName": "ЭнергияРКК",
    "CurrentPrice": 14500,
    "UserPrice": 0,
    "Count": 0,
    "CurrentAmount": 0,
    "UserAmount": 0,
    "CurrentAmountCommission": 0,
    "CurrentAmountPure": 0,
    "SaleProfit": 0,
    "SaleProfitPer": null,
    "IsProfit": true
  },
  {
    "IsMy": false,
    "SecId": "RNFT",
    "StockShortName": "РуссНфт ао",
    "CurrentPrice": 143.4,
    "UserPrice": 0,
    "Count": 0,
    "CurrentAmount": 0,
    "UserAmount": 0,
    "CurrentAmountCommission": 0,
    "CurrentAmountPure": 0,
    "SaleProfit": 0,
    "SaleProfitPer": null,
    "IsProfit": true
  },
  {
    "IsMy": false,
    "SecId": "ROLO",
    "StockShortName": "Русолово",
    "CurrentPrice": 0.7352,
    "UserPrice": 0,
    "Count": 0,
    "CurrentAmount": 0,
    "UserAmount": 0,
    "CurrentAmountCommission": 0,
    "CurrentAmountPure": 0,
    "SaleProfit": 0,
    "SaleProfitPer": null,
    "IsProfit": true
  },
  {
    "IsMy": false,
    "SecId": "ROSB",
    "StockShortName": "Росбанк ао",
    "CurrentPrice": 99.2,
    "UserPrice": 0,
    "Count": 0,
    "CurrentAmount": 0,
    "UserAmount": 0,
    "CurrentAmountCommission": 0,
    "CurrentAmountPure": 0,
    "SaleProfit": 0,
    "SaleProfitPer": null,
    "IsProfit": true
  },
  {
    "IsMy": false,
    "SecId": "ROST",
    "StockShortName": "РОСИНТЕРао",
    "CurrentPrice": 79.4,
    "UserPrice": 0,
    "Count": 0,
    "CurrentAmount": 0,
    "UserAmount": 0,
    "CurrentAmountCommission": 0,
    "CurrentAmountPure": 0,
    "SaleProfit": 0,
    "SaleProfitPer": null,
    "IsProfit": true
  },
  {
    "IsMy": false,
    "SecId": "RTGZ",
    "StockShortName": "ГазпРнД ао",
    "CurrentPrice": 28800,
    "UserPrice": 0,
    "Count": 0,
    "CurrentAmount": 0,
    "UserAmount": 0,
    "CurrentAmountCommission": 0,
    "CurrentAmountPure": 0,
    "SaleProfit": 0,
    "SaleProfitPer": null,
    "IsProfit": true
  },
  {
    "IsMy": false,
    "SecId": "RTKM",
    "StockShortName": "Ростел -ао",
    "CurrentPrice": 71.97,
    "UserPrice": 0,
    "Count": 0,
    "CurrentAmount": 0,
    "UserAmount": 0,
    "CurrentAmountCommission": 0,
    "CurrentAmountPure": 0,
    "SaleProfit": 0,
    "SaleProfitPer": null,
    "IsProfit": true
  },
  {
    "IsMy": false,
    "SecId": "RTKMP",
    "StockShortName": "Ростел -ап",
    "CurrentPrice": 74.15,
    "UserPrice": 0,
    "Count": 0,
    "CurrentAmount": 0,
    "UserAmount": 0,
    "CurrentAmountCommission": 0,
    "CurrentAmountPure": 0,
    "SaleProfit": 0,
    "SaleProfitPer": null,
    "IsProfit": true
  },
  {
    "IsMy": false,
    "SecId": "RTSB",
    "StockShortName": "ТНСэнРст",
    "CurrentPrice": 1.982,
    "UserPrice": 0,
    "Count": 0,
    "CurrentAmount": 0,
    "UserAmount": 0,
    "CurrentAmountCommission": 0,
    "CurrentAmountPure": 0,
    "SaleProfit": 0,
    "SaleProfitPer": null,
    "IsProfit": true
  },
  {
    "IsMy": false,
    "SecId": "NKSH",
    "StockShortName": "Нижкамшина",
    "CurrentPrice": 38.96,
    "UserPrice": 0,
    "Count": 0,
    "CurrentAmount": 0,
    "UserAmount": 0,
    "CurrentAmountCommission": 0,
    "CurrentAmountPure": 0,
    "SaleProfit": 0,
    "SaleProfitPer": null,
    "IsProfit": true
  },
  {
    "IsMy": false,
    "SecId": "RUAL",
    "StockShortName": "РУСАЛ ао",
    "CurrentPrice": 41.145,
    "UserPrice": 0,
    "Count": 0,
    "CurrentAmount": 0,
    "UserAmount": 0,
    "CurrentAmountCommission": 0,
    "CurrentAmountPure": 0,
    "SaleProfit": 0,
    "SaleProfitPer": null,
    "IsProfit": true
  },
  {
    "IsMy": false,
    "SecId": "RUSI",
    "StockShortName": "ИКРУСС-ИНВ",
    "CurrentPrice": 76.7,
    "UserPrice": 0,
    "Count": 0,
    "CurrentAmount": 0,
    "UserAmount": 0,
    "CurrentAmountCommission": 0,
    "CurrentAmountPure": 0,
    "SaleProfit": 0,
    "SaleProfitPer": null,
    "IsProfit": true
  },
  {
    "IsMy": false,
    "SecId": "RZSB",
    "StockShortName": "РязЭнСб",
    "CurrentPrice": 34.5,
    "UserPrice": 0,
    "Count": 0,
    "CurrentAmount": 0,
    "UserAmount": 0,
    "CurrentAmountCommission": 0,
    "CurrentAmountPure": 0,
    "SaleProfit": 0,
    "SaleProfitPer": null,
    "IsProfit": true
  },
  {
    "IsMy": false,
    "SecId": "SAGO",
    "StockShortName": "СамарЭн-ао",
    "CurrentPrice": 2.842,
    "UserPrice": 0,
    "Count": 0,
    "CurrentAmount": 0,
    "UserAmount": 0,
    "CurrentAmountCommission": 0,
    "CurrentAmountPure": 0,
    "SaleProfit": 0,
    "SaleProfitPer": null,
    "IsProfit": true
  },
  {
    "IsMy": false,
    "SecId": "SAGOP",
    "StockShortName": "СамарЭн-ап",
    "CurrentPrice": 2.84,
    "UserPrice": 0,
    "Count": 0,
    "CurrentAmount": 0,
    "UserAmount": 0,
    "CurrentAmountCommission": 0,
    "CurrentAmountPure": 0,
    "SaleProfit": 0,
    "SaleProfitPer": null,
    "IsProfit": true
  },
  {
    "IsMy": false,
    "SecId": "SARE",
    "StockShortName": "СаратЭн-ао",
    "CurrentPrice": 0.2698,
    "UserPrice": 0,
    "Count": 0,
    "CurrentAmount": 0,
    "UserAmount": 0,
    "CurrentAmountCommission": 0,
    "CurrentAmountPure": 0,
    "SaleProfit": 0,
    "SaleProfitPer": null,
    "IsProfit": true
  },
  {
    "IsMy": false,
    "SecId": "SAREP",
    "StockShortName": "СаратЭн-ап",
    "CurrentPrice": 0.2476,
    "UserPrice": 0,
    "Count": 0,
    "CurrentAmount": 0,
    "UserAmount": 0,
    "CurrentAmountCommission": 0,
    "CurrentAmountPure": 0,
    "SaleProfit": 0,
    "SaleProfitPer": null,
    "IsProfit": true
  },
  {
    "IsMy": false,
    "SecId": "SBERP",
    "StockShortName": "Сбербанк-п",
    "CurrentPrice": 240.7,
    "UserPrice": 0,
    "Count": 0,
    "CurrentAmount": 0,
    "UserAmount": 0,
    "CurrentAmountCommission": 0,
    "CurrentAmountPure": 0,
    "SaleProfit": 0,
    "SaleProfitPer": null,
    "IsProfit": true
  },
  {
    "IsMy": false,
    "SecId": "SBER",
    "StockShortName": "Сбербанк",
    "CurrentPrice": 243.67,
    "UserPrice": 0,
    "Count": 0,
    "CurrentAmount": 0,
    "UserAmount": 0,
    "CurrentAmountCommission": 0,
    "CurrentAmountPure": 0,
    "SaleProfit": 0,
    "SaleProfitPer": null,
    "IsProfit": true
  },
  {
    "IsMy": false,
    "SecId": "SELG",
    "StockShortName": "Селигдар",
    "CurrentPrice": 52.51,
    "UserPrice": 0,
    "Count": 0,
    "CurrentAmount": 0,
    "UserAmount": 0,
    "CurrentAmountCommission": 0,
    "CurrentAmountPure": 0,
    "SaleProfit": 0,
    "SaleProfitPer": null,
    "IsProfit": true
  },
  {
    "IsMy": false,
    "SecId": "OZON",
    "StockShortName": "OZON-адр",
    "CurrentPrice": 1964,
    "UserPrice": 0,
    "Count": 0,
    "CurrentAmount": 0,
    "UserAmount": 0,
    "CurrentAmountCommission": 0,
    "CurrentAmountPure": 0,
    "SaleProfit": 0,
    "SaleProfitPer": null,
    "IsProfit": true
  },
  {
    "IsMy": false,
    "SecId": "SFTL",
    "StockShortName": "iNVTQ-гдр",
    "CurrentPrice": 156.8,
    "UserPrice": 0,
    "Count": 0,
    "CurrentAmount": 0,
    "UserAmount": 0,
    "CurrentAmountCommission": 0,
    "CurrentAmountPure": 0,
    "SaleProfit": 0,
    "SaleProfitPer": null,
    "IsProfit": true
  },
  {
    "IsMy": false,
    "SecId": "SGZH",
    "StockShortName": "Сегежа",
    "CurrentPrice": 6.135,
    "UserPrice": 0,
    "Count": 0,
    "CurrentAmount": 0,
    "UserAmount": 0,
    "CurrentAmountCommission": 0,
    "CurrentAmountPure": 0,
    "SaleProfit": 0,
    "SaleProfitPer": null,
    "IsProfit": true
  },
  {
    "IsMy": false,
    "SecId": "SLEN",
    "StockShortName": "Сахэнер ао",
    "CurrentPrice": 4.58,
    "UserPrice": 0,
    "Count": 0,
    "CurrentAmount": 0,
    "UserAmount": 0,
    "CurrentAmountCommission": 0,
    "CurrentAmountPure": 0,
    "SaleProfit": 0,
    "SaleProfitPer": null,
    "IsProfit": true
  },
  {
    "IsMy": false,
    "SecId": "SMLT",
    "StockShortName": "Самолет ао",
    "CurrentPrice": 3056.5,
    "UserPrice": 0,
    "Count": 0,
    "CurrentAmount": 0,
    "UserAmount": 0,
    "CurrentAmountCommission": 0,
    "CurrentAmountPure": 0,
    "SaleProfit": 0,
    "SaleProfitPer": null,
    "IsProfit": true
  },
  {
    "IsMy": false,
    "SecId": "SPBE",
    "StockShortName": "СПБ Биржа",
    "CurrentPrice": 174.5,
    "UserPrice": 0,
    "Count": 0,
    "CurrentAmount": 0,
    "UserAmount": 0,
    "CurrentAmountCommission": 0,
    "CurrentAmountPure": 0,
    "SaleProfit": 0,
    "SaleProfitPer": null,
    "IsProfit": true
  },
  {
    "IsMy": false,
    "SecId": "STSB",
    "StockShortName": "СтаврЭнСб",
    "CurrentPrice": 2.15,
    "UserPrice": 0,
    "Count": 0,
    "CurrentAmount": 0,
    "UserAmount": 0,
    "CurrentAmountCommission": 0,
    "CurrentAmountPure": 0,
    "SaleProfit": 0,
    "SaleProfitPer": null,
    "IsProfit": true
  },
  {
    "IsMy": false,
    "SecId": "STSBP",
    "StockShortName": "СтаврЭнСбп",
    "CurrentPrice": 2.061,
    "UserPrice": 0,
    "Count": 0,
    "CurrentAmount": 0,
    "UserAmount": 0,
    "CurrentAmountCommission": 0,
    "CurrentAmountPure": 0,
    "SaleProfit": 0,
    "SaleProfitPer": null,
    "IsProfit": true
  },
  {
    "IsMy": false,
    "SecId": "SVAV",
    "StockShortName": "СОЛЛЕРС",
    "CurrentPrice": 803.5,
    "UserPrice": 0,
    "Count": 0,
    "CurrentAmount": 0,
    "UserAmount": 0,
    "CurrentAmountCommission": 0,
    "CurrentAmountPure": 0,
    "SaleProfit": 0,
    "SaleProfitPer": null,
    "IsProfit": true
  },
  {
    "IsMy": false,
    "SecId": "SVET",
    "StockShortName": "Светофор",
    "CurrentPrice": 30.5,
    "UserPrice": 0,
    "Count": 0,
    "CurrentAmount": 0,
    "UserAmount": 0,
    "CurrentAmountCommission": 0,
    "CurrentAmountPure": 0,
    "SaleProfit": 0,
    "SaleProfitPer": null,
    "IsProfit": true
  },
  {
    "IsMy": false,
    "SecId": "TASB",
    "StockShortName": "ТамбЭнСб",
    "CurrentPrice": 1.418,
    "UserPrice": 0,
    "Count": 0,
    "CurrentAmount": 0,
    "UserAmount": 0,
    "CurrentAmountCommission": 0,
    "CurrentAmountPure": 0,
    "SaleProfit": 0,
    "SaleProfitPer": null,
    "IsProfit": true
  },
  {
    "IsMy": false,
    "SecId": "TASBP",
    "StockShortName": "ТамбЭнСб-п",
    "CurrentPrice": 0.7795,
    "UserPrice": 0,
    "Count": 0,
    "CurrentAmount": 0,
    "UserAmount": 0,
    "CurrentAmountCommission": 0,
    "CurrentAmountPure": 0,
    "SaleProfit": 0,
    "SaleProfitPer": null,
    "IsProfit": true
  },
  {
    "IsMy": false,
    "SecId": "TGKA",
    "StockShortName": "ТГК-1",
    "CurrentPrice": 0.008992,
    "UserPrice": 0,
    "Count": 0,
    "CurrentAmount": 0,
    "UserAmount": 0,
    "CurrentAmountCommission": 0,
    "CurrentAmountPure": 0,
    "SaleProfit": 0,
    "SaleProfitPer": null,
    "IsProfit": true
  },
  {
    "IsMy": false,
    "SecId": "TCSG",
    "StockShortName": "TCS-гдр",
    "CurrentPrice": 3225,
    "UserPrice": 0,
    "Count": 0,
    "CurrentAmount": 0,
    "UserAmount": 0,
    "CurrentAmountCommission": 0,
    "CurrentAmountPure": 0,
    "SaleProfit": 0,
    "SaleProfitPer": null,
    "IsProfit": true
  },
  {
    "IsMy": false,
    "SecId": "TGKB",
    "StockShortName": "ТГК-2",
    "CurrentPrice": 0.00506,
    "UserPrice": 0,
    "Count": 0,
    "CurrentAmount": 0,
    "UserAmount": 0,
    "CurrentAmountCommission": 0,
    "CurrentAmountPure": 0,
    "SaleProfit": 0,
    "SaleProfitPer": null,
    "IsProfit": true
  },
  {
    "IsMy": false,
    "SecId": "TGKBP",
    "StockShortName": "ТГК-2 ап",
    "CurrentPrice": 0.01092,
    "UserPrice": 0,
    "Count": 0,
    "CurrentAmount": 0,
    "UserAmount": 0,
    "CurrentAmountCommission": 0,
    "CurrentAmountPure": 0,
    "SaleProfit": 0,
    "SaleProfitPer": null,
    "IsProfit": true
  },
  {
    "IsMy": false,
    "SecId": "TGKN",
    "StockShortName": "ТГК-14",
    "CurrentPrice": 0.01041,
    "UserPrice": 0,
    "Count": 0,
    "CurrentAmount": 0,
    "UserAmount": 0,
    "CurrentAmountCommission": 0,
    "CurrentAmountPure": 0,
    "SaleProfit": 0,
    "SaleProfitPer": null,
    "IsProfit": true
  },
  {
    "IsMy": false,
    "SecId": "TNSE",
    "StockShortName": "ТНСэнрг ао",
    "CurrentPrice": 1660,
    "UserPrice": 0,
    "Count": 0,
    "CurrentAmount": 0,
    "UserAmount": 0,
    "CurrentAmountCommission": 0,
    "CurrentAmountPure": 0,
    "SaleProfit": 0,
    "SaleProfitPer": null,
    "IsProfit": true
  },
  {
    "IsMy": false,
    "SecId": "TORS",
    "StockShortName": "ТРК ао",
    "CurrentPrice": 0.681,
    "UserPrice": 0,
    "Count": 0,
    "CurrentAmount": 0,
    "UserAmount": 0,
    "CurrentAmountCommission": 0,
    "CurrentAmountPure": 0,
    "SaleProfit": 0,
    "SaleProfitPer": null,
    "IsProfit": true
  },
  {
    "IsMy": false,
    "SecId": "TORSP",
    "StockShortName": "ТРК ап",
    "CurrentPrice": 0.4175,
    "UserPrice": 0,
    "Count": 0,
    "CurrentAmount": 0,
    "UserAmount": 0,
    "CurrentAmountCommission": 0,
    "CurrentAmountPure": 0,
    "SaleProfit": 0,
    "SaleProfitPer": null,
    "IsProfit": true
  },
  {
    "IsMy": false,
    "SecId": "TRMK",
    "StockShortName": "ТМК ао",
    "CurrentPrice": 155.4,
    "UserPrice": 0,
    "Count": 0,
    "CurrentAmount": 0,
    "UserAmount": 0,
    "CurrentAmountCommission": 0,
    "CurrentAmountPure": 0,
    "SaleProfit": 0,
    "SaleProfitPer": null,
    "IsProfit": true
  },
  {
    "IsMy": false,
    "SecId": "TTLK",
    "StockShortName": "Таттел. ао",
    "CurrentPrice": 0.7295,
    "UserPrice": 0,
    "Count": 0,
    "CurrentAmount": 0,
    "UserAmount": 0,
    "CurrentAmountCommission": 0,
    "CurrentAmountPure": 0,
    "SaleProfit": 0,
    "SaleProfitPer": null,
    "IsProfit": true
  },
  {
    "IsMy": false,
    "SecId": "RTSBP",
    "StockShortName": "ТНСэнРст-п",
    "CurrentPrice": 1.237,
    "UserPrice": 0,
    "Count": 0,
    "CurrentAmount": 0,
    "UserAmount": 0,
    "CurrentAmountCommission": 0,
    "CurrentAmountPure": 0,
    "SaleProfit": 0,
    "SaleProfitPer": null,
    "IsProfit": true
  },
  {
    "IsMy": false,
    "SecId": "UCSS",
    "StockShortName": "ОКС ао",
    "CurrentPrice": 940,
    "UserPrice": 0,
    "Count": 0,
    "CurrentAmount": 0,
    "UserAmount": 0,
    "CurrentAmountCommission": 0,
    "CurrentAmountPure": 0,
    "SaleProfit": 0,
    "SaleProfitPer": null,
    "IsProfit": true
  },
  {
    "IsMy": false,
    "SecId": "UKUZ",
    "StockShortName": "ЮжКузб. ао",
    "CurrentPrice": 1646,
    "UserPrice": 0,
    "Count": 0,
    "CurrentAmount": 0,
    "UserAmount": 0,
    "CurrentAmountCommission": 0,
    "CurrentAmountPure": 0,
    "SaleProfit": 0,
    "SaleProfitPer": null,
    "IsProfit": true
  },
  {
    "IsMy": false,
    "SecId": "UNAC",
    "StockShortName": "iАвиастКао",
    "CurrentPrice": 0.7305,
    "UserPrice": 0,
    "Count": 0,
    "CurrentAmount": 0,
    "UserAmount": 0,
    "CurrentAmountCommission": 0,
    "CurrentAmountPure": 0,
    "SaleProfit": 0,
    "SaleProfitPer": null,
    "IsProfit": true
  },
  {
    "IsMy": false,
    "SecId": "UNKL",
    "StockShortName": "ЮУНК ао",
    "CurrentPrice": 9990,
    "UserPrice": 0,
    "Count": 0,
    "CurrentAmount": 0,
    "UserAmount": 0,
    "CurrentAmountCommission": 0,
    "CurrentAmountPure": 0,
    "SaleProfit": 0,
    "SaleProfitPer": null,
    "IsProfit": true
  },
  {
    "IsMy": false,
    "SecId": "UPRO",
    "StockShortName": "Юнипро ао",
    "CurrentPrice": 1.826,
    "UserPrice": 0,
    "Count": 0,
    "CurrentAmount": 0,
    "UserAmount": 0,
    "CurrentAmountCommission": 0,
    "CurrentAmountPure": 0,
    "SaleProfit": 0,
    "SaleProfitPer": null,
    "IsProfit": true
  },
  {
    "IsMy": false,
    "SecId": "URKZ",
    "StockShortName": "УрКузница",
    "CurrentPrice": 25400,
    "UserPrice": 0,
    "Count": 0,
    "CurrentAmount": 0,
    "UserAmount": 0,
    "CurrentAmountCommission": 0,
    "CurrentAmountPure": 0,
    "SaleProfit": 0,
    "SaleProfitPer": null,
    "IsProfit": true
  },
  {
    "IsMy": false,
    "SecId": "USBN",
    "StockShortName": "УралСиб ао",
    "CurrentPrice": 0.1502,
    "UserPrice": 0,
    "Count": 0,
    "CurrentAmount": 0,
    "UserAmount": 0,
    "CurrentAmountCommission": 0,
    "CurrentAmountPure": 0,
    "SaleProfit": 0,
    "SaleProfitPer": null,
    "IsProfit": true
  },
  {
    "IsMy": false,
    "SecId": "UTAR",
    "StockShortName": "ЮТэйр ао",
    "CurrentPrice": 9.68,
    "UserPrice": 0,
    "Count": 0,
    "CurrentAmount": 0,
    "UserAmount": 0,
    "CurrentAmountCommission": 0,
    "CurrentAmountPure": 0,
    "SaleProfit": 0,
    "SaleProfitPer": null,
    "IsProfit": true
  },
  {
    "IsMy": false,
    "SecId": "VEON-RX",
    "StockShortName": "VEON",
    "CurrentPrice": 50.15,
    "UserPrice": 0,
    "Count": 0,
    "CurrentAmount": 0,
    "UserAmount": 0,
    "CurrentAmountCommission": 0,
    "CurrentAmountPure": 0,
    "SaleProfit": 0,
    "SaleProfitPer": null,
    "IsProfit": true
  },
  {
    "IsMy": false,
    "SecId": "VGSB",
    "StockShortName": "ВолгЭнСб",
    "CurrentPrice": 8.2,
    "UserPrice": 0,
    "Count": 0,
    "CurrentAmount": 0,
    "UserAmount": 0,
    "CurrentAmountCommission": 0,
    "CurrentAmountPure": 0,
    "SaleProfit": 0,
    "SaleProfitPer": null,
    "IsProfit": true
  },
  {
    "IsMy": false,
    "SecId": "VGSBP",
    "StockShortName": "ВолгЭнСб-п",
    "CurrentPrice": 5.86,
    "UserPrice": 0,
    "Count": 0,
    "CurrentAmount": 0,
    "UserAmount": 0,
    "CurrentAmountCommission": 0,
    "CurrentAmountPure": 0,
    "SaleProfit": 0,
    "SaleProfitPer": null,
    "IsProfit": true
  },
  {
    "IsMy": false,
    "SecId": "SFIN",
    "StockShortName": "ЭсЭфАй ао",
    "CurrentPrice": 501.4,
    "UserPrice": 0,
    "Count": 0,
    "CurrentAmount": 0,
    "UserAmount": 0,
    "CurrentAmountCommission": 0,
    "CurrentAmountPure": 0,
    "SaleProfit": 0,
    "SaleProfitPer": null,
    "IsProfit": true
  },
  {
    "IsMy": false,
    "SecId": "VJGZP",
    "StockShortName": "Варьеган-п",
    "CurrentPrice": 770,
    "UserPrice": 0,
    "Count": 0,
    "CurrentAmount": 0,
    "UserAmount": 0,
    "CurrentAmountCommission": 0,
    "CurrentAmountPure": 0,
    "SaleProfit": 0,
    "SaleProfitPer": null,
    "IsProfit": true
  },
  {
    "IsMy": false,
    "SecId": "VKCO",
    "StockShortName": "VK-гдр",
    "CurrentPrice": 605.8,
    "UserPrice": 0,
    "Count": 0,
    "CurrentAmount": 0,
    "UserAmount": 0,
    "CurrentAmountCommission": 0,
    "CurrentAmountPure": 0,
    "SaleProfit": 0,
    "SaleProfitPer": null,
    "IsProfit": true
  },
  {
    "IsMy": false,
    "SecId": "VLHZ",
    "StockShortName": "ВХЗ-ао",
    "CurrentPrice": 199.5,
    "UserPrice": 0,
    "Count": 0,
    "CurrentAmount": 0,
    "UserAmount": 0,
    "CurrentAmountCommission": 0,
    "CurrentAmountPure": 0,
    "SaleProfit": 0,
    "SaleProfitPer": null,
    "IsProfit": true
  },
  {
    "IsMy": false,
    "SecId": "VRSB",
    "StockShortName": "ТНСэнВорон",
    "CurrentPrice": 363.2,
    "UserPrice": 0,
    "Count": 0,
    "CurrentAmount": 0,
    "UserAmount": 0,
    "CurrentAmountCommission": 0,
    "CurrentAmountPure": 0,
    "SaleProfit": 0,
    "SaleProfitPer": null,
    "IsProfit": true
  },
  {
    "IsMy": false,
    "SecId": "VRSBP",
    "StockShortName": "ТНСэнВор-п",
    "CurrentPrice": 105,
    "UserPrice": 0,
    "Count": 0,
    "CurrentAmount": 0,
    "UserAmount": 0,
    "CurrentAmountCommission": 0,
    "CurrentAmountPure": 0,
    "SaleProfit": 0,
    "SaleProfitPer": null,
    "IsProfit": true
  },
  {
    "IsMy": false,
    "SecId": "VSMO",
    "StockShortName": "ВСМПО-АВСМ",
    "CurrentPrice": 48940,
    "UserPrice": 0,
    "Count": 0,
    "CurrentAmount": 0,
    "UserAmount": 0,
    "CurrentAmountCommission": 0,
    "CurrentAmountPure": 0,
    "SaleProfit": 0,
    "SaleProfitPer": null,
    "IsProfit": true
  },
  {
    "IsMy": false,
    "SecId": "VSYDP",
    "StockShortName": "ВыбСудЗ ап",
    "CurrentPrice": 8800,
    "UserPrice": 0,
    "Count": 0,
    "CurrentAmount": 0,
    "UserAmount": 0,
    "CurrentAmountCommission": 0,
    "CurrentAmountPure": 0,
    "SaleProfit": 0,
    "SaleProfitPer": null,
    "IsProfit": true
  },
  {
    "IsMy": false,
    "SecId": "VSYD",
    "StockShortName": "ВыбСудЗ ао",
    "CurrentPrice": 8850,
    "UserPrice": 0,
    "Count": 0,
    "CurrentAmount": 0,
    "UserAmount": 0,
    "CurrentAmountCommission": 0,
    "CurrentAmountPure": 0,
    "SaleProfit": 0,
    "SaleProfitPer": null,
    "IsProfit": true
  },
  {
    "IsMy": false,
    "SecId": "VTBR",
    "StockShortName": "ВТБ ао",
    "CurrentPrice": 0.022485,
    "UserPrice": 0,
    "Count": 0,
    "CurrentAmount": 0,
    "UserAmount": 0,
    "CurrentAmountCommission": 0,
    "CurrentAmountPure": 0,
    "SaleProfit": 0,
    "SaleProfitPer": null,
    "IsProfit": true
  },
  {
    "IsMy": false,
    "SecId": "WTCM",
    "StockShortName": "ЦМТ ао",
    "CurrentPrice": 12.08,
    "UserPrice": 0,
    "Count": 0,
    "CurrentAmount": 0,
    "UserAmount": 0,
    "CurrentAmountCommission": 0,
    "CurrentAmountPure": 0,
    "SaleProfit": 0,
    "SaleProfitPer": null,
    "IsProfit": true
  },
  {
    "IsMy": false,
    "SecId": "WTCMP",
    "StockShortName": "ЦМТ ап",
    "CurrentPrice": 9.1,
    "UserPrice": 0,
    "Count": 0,
    "CurrentAmount": 0,
    "UserAmount": 0,
    "CurrentAmountCommission": 0,
    "CurrentAmountPure": 0,
    "SaleProfit": 0,
    "SaleProfitPer": null,
    "IsProfit": true
  },
  {
    "IsMy": false,
    "SecId": "WUSH",
    "StockShortName": "iВУШХолднг",
    "CurrentPrice": 220,
    "UserPrice": 0,
    "Count": 0,
    "CurrentAmount": 0,
    "UserAmount": 0,
    "CurrentAmountCommission": 0,
    "CurrentAmountPure": 0,
    "SaleProfit": 0,
    "SaleProfitPer": null,
    "IsProfit": true
  },
  {
    "IsMy": false,
    "SecId": "YAKG",
    "StockShortName": "ЯТЭК ао",
    "CurrentPrice": 115.75,
    "UserPrice": 0,
    "Count": 0,
    "CurrentAmount": 0,
    "UserAmount": 0,
    "CurrentAmountCommission": 0,
    "CurrentAmountPure": 0,
    "SaleProfit": 0,
    "SaleProfitPer": null,
    "IsProfit": true
  },
  {
    "IsMy": false,
    "SecId": "YKEN",
    "StockShortName": "Якутскэнрг",
    "CurrentPrice": 0.4445,
    "UserPrice": 0,
    "Count": 0,
    "CurrentAmount": 0,
    "UserAmount": 0,
    "CurrentAmountCommission": 0,
    "CurrentAmountPure": 0,
    "SaleProfit": 0,
    "SaleProfitPer": null,
    "IsProfit": true
  },
  {
    "IsMy": false,
    "SecId": "YKENP",
    "StockShortName": "Якутскэн-п",
    "CurrentPrice": 0.4145,
    "UserPrice": 0,
    "Count": 0,
    "CurrentAmount": 0,
    "UserAmount": 0,
    "CurrentAmountCommission": 0,
    "CurrentAmountPure": 0,
    "SaleProfit": 0,
    "SaleProfitPer": null,
    "IsProfit": true
  },
  {
    "IsMy": false,
    "SecId": "YNDX",
    "StockShortName": "Yandex clA",
    "CurrentPrice": 2365.6,
    "UserPrice": 0,
    "Count": 0,
    "CurrentAmount": 0,
    "UserAmount": 0,
    "CurrentAmountCommission": 0,
    "CurrentAmountPure": 0,
    "SaleProfit": 0,
    "SaleProfitPer": null,
    "IsProfit": true
  },
  {
    "IsMy": false,
    "SecId": "YRSB",
    "StockShortName": "ТНСэнЯр",
    "CurrentPrice": 456,
    "UserPrice": 0,
    "Count": 0,
    "CurrentAmount": 0,
    "UserAmount": 0,
    "CurrentAmountCommission": 0,
    "CurrentAmountPure": 0,
    "SaleProfit": 0,
    "SaleProfitPer": null,
    "IsProfit": true
  },
  {
    "IsMy": false,
    "SecId": "YRSBP",
    "StockShortName": "ТНСэнЯр-п",
    "CurrentPrice": 174.5,
    "UserPrice": 0,
    "Count": 0,
    "CurrentAmount": 0,
    "UserAmount": 0,
    "CurrentAmountCommission": 0,
    "CurrentAmountPure": 0,
    "SaleProfit": 0,
    "SaleProfitPer": null,
    "IsProfit": true
  },
  {
    "IsMy": false,
    "SecId": "ZILL",
    "StockShortName": "ЗИЛ ао",
    "CurrentPrice": 3265,
    "UserPrice": 0,
    "Count": 0,
    "CurrentAmount": 0,
    "UserAmount": 0,
    "CurrentAmountCommission": 0,
    "CurrentAmountPure": 0,
    "SaleProfit": 0,
    "SaleProfitPer": null,
    "IsProfit": true
  },
  {
    "IsMy": false,
    "SecId": "ZVEZ",
    "StockShortName": "ЗВЕЗДА ао",
    "CurrentPrice": 6.385,
    "UserPrice": 0,
    "Count": 0,
    "CurrentAmount": 0,
    "UserAmount": 0,
    "CurrentAmountCommission": 0,
    "CurrentAmountPure": 0,
    "SaleProfit": 0,
    "SaleProfitPer": null,
    "IsProfit": true
  },
  {
    "IsMy": false,
    "SecId": "TUZA",
    "StockShortName": "ТЗА ао",
    "CurrentPrice": 168.5,
    "UserPrice": 0,
    "Count": 0,
    "CurrentAmount": 0,
    "UserAmount": 0,
    "CurrentAmountCommission": 0,
    "CurrentAmountPure": 0,
    "SaleProfit": 0,
    "SaleProfitPer": null,
    "IsProfit": true
  },
  {
    "IsMy": false,
    "SecId": "VJGZ",
    "StockShortName": "Варьеган",
    "CurrentPrice": 1900,
    "UserPrice": 0,
    "Count": 0,
    "CurrentAmount": 0,
    "UserAmount": 0,
    "CurrentAmountCommission": 0,
    "CurrentAmountPure": 0,
    "SaleProfit": 0,
    "SaleProfitPer": null,
    "IsProfit": true
  }
]
