{
  "profiles": {
    "http": {
      "commandName": "Project",
      "launchBrowser": true,
      "launchUrl": "swagger",
      "environmentVariables": {
        "ASPNETCORE_ENVIRONMENT": "Development"
      },
      "dotnetRunMessages": true,
      "applicationUrl": "http://localhost:5174"
    },
    "https": {
      "commandName": "Project",
      "launchBrowser": true,
      "launchUrl": "swagger",
      "environmentVariables": {
        "ASPNETCORE_ENVIRONMENT": "Development"
      },
      "dotnetRunMessages": true,
      "applicationUrl": "https://localhost:7153;http://localhost:5174"
    },
    "IIS Express": {
      "commandName": "IISExpress",
      "launchBrowser": true,
      "launchUrl": "swagger",
      "environmentVariables": {
        "ASPNETCORE_ENVIRONMENT": "Development"
      }
    },
    "Docker": {
      "commandName": "Docker",
      "launchBrowser": false,
      "launchUrl": "{Scheme}://{ServiceHost}:{ServicePort}/swagger",
      "environmentVariables": {
        "ASPNETCORE_URLS": "http://+:8080"
      },
      "publishAllPorts": true,
      "DockerfileRunArguments": "--network=pias_pias_network -itd --name=pias-telebot"
    }
  },
  "$schema": "https://json.schemastore.org/launchsettings.json",
  "iisSettings": {
    "windowsAuthentication": false,
    "anonymousAuthentication": true,
    "iisExpress": {
      "applicationUrl": "http://localhost:22045",
      "sslPort": 44387
    }
  }
}